Rank,Freq,Word,Translation,POS
1,205,друг,'friend’,NOUN
2,200,душа,'soul’,NOUN
3,189,день,'day’,NOUN
4,181,любовь,'love’,NOUN
5,172,сердце,'heart’,NOUN
6,147,милый,'lovely’,ADJ
7,121,сей,'this’,ADJ
8,117,небо,'sky’,NOUN
9,116,жизнь,'life’,NOUN
10,107,лишь,'only’,ADV
11,105,радость,'joy’,NOUN
12,100,слеза,'tear’,NOUN
13,95,мечта,'dream’,NOUN
15,90,счастие,,
16,88,рука,,
17,84,поле,,
18,80,мир,,
19,79,ль,,
20,77,взор,,
21,73,тень,,
22,71,свет,,
23,68,сон,,
24,68,счастливый,,
25,67,тоска,,
26,65,час,,
27,63,любить,,
28,62,i,,
29,61,надежда,,
30,60,нежный,,
31,59,судьба,,
32,56,последний,,
33,55,могила,,
34,55,природа,,
35,54,бог,,
36,54,год,,
37,53,жить,,
38,53,забывать,,
39,53,луч,,
40,52,земля,,
41,52,тихий,,
42,51,прелестный,,
43,50,лес,,
44,50,лист,,
45,50,сладкий,,
46,49,око,,
47,49,страна,,
48,48,унылый,,
49,48,чувство,,
50,48,юный,,
51,47,волна,,
52,47,знать,,
53,46,прах,,
54,46,святой,,
55,45,внимать,,
56,45,вода,,
57,45,гроб,,
58,45,луг,,
59,45,холм,,
60,44,красота,,
61,43,гора,,
62,43,иль,,
63,43,ночь,,
64,42,долина,,
65,42,луна,,
66,42,увы,,
67,41,весна,,
68,41,заря,,
69,40,восторг,,
70,40,давать,,
71,40,идти,,
72,40,мать,,
73,40,смерть,,
74,39,век,,
75,39,время,,
76,39,глас,,
77,39,грудь,,
78,39,лететь,,
79,39,покой,,
80,38,пусть,,
81,37,берег,,
82,37,мирный,,
83,37,небесный,,
84,37,отрада,,
85,37,пора,,
86,37,путь,,
87,37,светлый,,
88,37,след,,
89,37,средь,,
90,37,тишина,,
91,36,горесть,,
92,36,звук,,
93,36,златой,,
94,36,напрасно,,
95,36,наслаждение,,
96,36,несчастный,,
97,36,огонь,,
98,36,певец,,
99,36,прийти,,
100,36,цветок,,
101,35,ваш,,
102,35,исчезать,,
103,35,подруга,,
104,34,давно,,
105,34,находить,,
106,34,печаль,,
107,34,печальный,,
108,34,пред,,
109,34,священный,,
110,34,слава,,
111,34,смотреть,,
112,33,родной,,
113,33,роща,,
114,33,цвет,,
115,32,брег,,
116,32,дух,,
117,32,желание,,
118,32,сердечный,,
119,32,страдание,,
120,31,блаженство,,
121,31,место,,
122,31,петь,,
123,31,прощать,,
124,31,человек,,
125,30,ветер,,
126,30,искать,,
127,30,пустынный,,
128,30,часто,,
129,29,вкушать,,
130,29,вновь,,
131,29,другой,,
132,29,сила,,
133,29,сладостный,,
134,28,дар,,
135,28,зефир,,
136,28,зреть,,
137,28,мрачный,,
138,28,новый,,
139,28,разлука,,
140,28,река,,
141,28,спешить,,
142,28,шум,,
143,27,вечерний,,
144,27,вечный,,
145,27,встречать,,
146,27,голос,,
147,27,ждать,,
148,27,каждый,,
149,27,минута,,
150,27,обитель,,
151,27,пламенный,,
152,27,роза,,
153,27,рок,,
154,27,свод,,
155,27,цвести,,
156,26,дубрава,,
157,26,какой,,
158,26,край,,
159,26,любезный,,
160,26,прекрасный,,
161,26,призрак,,
162,26,среди,,
163,26,становиться,,
164,26,улыбка,,
165,26,чело,,
166,26,шуметь,,
167,25,грозный,,
168,25,легкий,,
169,25,меж,,
170,25,оставлять,,
171,25,почто,,
172,25,сын,,
173,25,ужасный,,
174,25,уста,,
175,25,цепь,,
176,24,веселие,,
177,24,краса,,
178,24,кров,,
179,24,мрак,,
180,24,страсть,,
181,24,струя,,
182,24,юность,,
183,23,бежать,,
184,23,буря,,
185,23,древо,,
186,23,жестокий,,
187,23,лира,,
188,23,прежний,,
189,23,таинственный,,
190,23,тихо,,
191,22,ветерок,,
192,22,грусть,,
193,22,дружба,,
194,22,едва,,
195,22,жертва,,
196,22,звать,,
197,22,земной,,
198,22,очарование,,
199,22,смертный,,
200,22,томный,,
201,22,юноша,,
202,21,веселый,,
203,21,ветвь,,
204,21,вид,,
205,21,глава,,
206,21,дума,,
207,21,немой,,
208,21,родина,,
209,21,сень,,
210,21,сидеть,,
211,21,солнце,,
212,21,стон,,
213,21,струна,,
214,21,увянуть,,
215,21,храм,,
216,20,беда,,
217,20,верный,,
218,20,волшебный,,
219,20,гордый,,
220,20,два,,
221,20,крыло,,
222,20,лить,,
223,20,молодой,,
224,20,навек,,
225,20,песня,,
226,20,ручей,,
227,20,спать,,
228,20,сумрак,,
229,20,ясный,,
230,19,ангел,,
231,19,блеск,,
232,19,воспоминание,,
233,19,дева,,
234,19,звезда,,
235,19,лежать,,
236,19,море,,
237,19,облако,,
238,19,полный,,
239,19,прелесть,,
240,19,приносить,,
241,19,толпа,,
242,19,туман,,
243,19,уныние,,
244,18,безмолвный,,
245,18,бледный,,
246,18,будто,,
247,18,всегда,,
248,18,густой,,
249,18,знакомый,,
250,18,мечтание,,
251,18,миг,,
252,18,питать,,
253,18,покидать,,
254,18,привет,,
255,18,сколь,,
256,18,сладость,,
257,18,сокрыть,,
258,18,тайный,,
259,18,увидеть,,
260,18,удел,,
261,18,узнавать,,
262,18,царь,,
263,17,беспечность,,
264,17,бесценный,,
265,17,блистать,,
266,17,везде,,
267,17,глаз,,
268,17,долго,,
269,17,дремать,,
270,17,дыхание,,
271,17,дышать,,
272,17,жребий,,
273,17,камень,,
274,17,круг,,
275,17,мысль,,
276,17,отец,,
277,17,отрадный,,
278,17,пламень,,
279,17,проходить,,
280,17,резвый,,
281,17,сие,,
282,17,скала,,
283,17,слышать,,
284,17,умолкать,,
285,17,являться,,
286,16,бедный,,
287,16,вечер,,
288,16,враг,,
289,16,герой,,
290,16,делий,,
291,16,дикий,,
292,16,добрый,,
293,16,живой,,
294,16,забвение,,
295,16,изменять,,
296,16,младой,,
297,16,отчизна,,
298,16,первый,,
299,16,пить,,
300,16,повсюду,,
301,16,покрывать,,
302,16,сирота,,
303,16,сквозь,,
304,16,слезать,,
305,16,слетать,,
306,16,страдалец,,
307,16,течь,,
308,16,ток,,
309,16,туманный,,
310,16,упование,,
311,16,чистый,,
312,15,безмолвие,,
313,15,беседовать,,
314,15,благо,,
315,15,бродить,,
316,15,вздох,,
317,15,возвращаться,,
318,15,высокий,,
319,15,играть,,
320,15,казаться,,
321,15,молчание,,
322,15,невидимый,,
323,15,образ,,
324,15,объятие,,
325,15,пробуждать,,
326,15,рай,,
327,15,родимый,,
328,15,скорбь,,
329,15,скромный,,
330,15,скрываться,,
331,15,сокрыться,,
332,15,трепетать,,
333,15,угасать,,
334,15,услаждать,,
335,15,хладный,,
336,15,хор,,
337,15,чуждый,,
338,14,блуждать,,
339,14,бурный,,
340,14,венец,,
341,14,гений,,
342,14,глубокий,,
343,14,горестный,,
344,14,гореть,,
345,14,гробовой,,
346,14,гром,,
347,14,дальний,,
348,14,дуб,,
349,14,забава,,
350,14,конец,,
351,14,кровь,,
352,14,кроткий,,
353,14,куст,,
354,14,меч,,
355,14,мечтать,,
356,14,народ,,
357,14,невинный,,
358,14,некогда,,
359,14,нести,,
360,14,нимфа,,
361,14,погибать,,
362,14,принимать,,
363,14,расцветать,,
364,14,роковой,,
365,14,румяный,,
366,14,сени,,
367,14,сиять,,
368,14,соловей,,
369,14,страшный,,
370,14,супруга,,
371,14,угрюмый,,
372,14,уединенный,,
373,14,умирать,,
374,14,утеха,,
375,14,утро,,
376,14,чей,,
377,14,шумный,,
378,13,блестеть,,
379,13,будить,,
380,13,венок,,
381,13,взглядывать,,
382,13,волнение,,
383,13,гость,,
384,13,желать,,
385,13,жилище,,
386,13,злой,,
387,13,навеки,,
388,13,нега,,
389,13,обет,,
390,13,отдаленный,,
391,13,открывать,,
392,13,пасть,,
393,13,поток,,
394,13,предо,,
395,13,приветствовать,,
396,13,приятный,,
397,13,проливать,,
398,13,простереть,,
399,13,протекать,,
400,13,пустыня,,
401,13,пучина,,
402,13,пылать,,
403,13,роса,,
404,13,селение,,
405,13,скорбный,,
406,13,слово,,
407,13,стена,,
408,13,странник,,
409,13,туча,,
410,13,ужас,,
411,13,узреть,,
412,13,украшать,,
413,13,являть,,
414,12,арфа,,
415,12,бессмертный,,
416,12,боле,,
417,12,бросать,,
418,12,величие,,
419,12,весенний,,
420,12,возвращать,,
421,12,вотще,,
422,12,далекий,,
423,12,дерзать,,
424,12,золотой,,
425,12,кипеть,,
426,12,лазурный,,
427,12,месяц,,
428,12,младость,,
429,12,мольба,,
430,12,мука,,
431,12,невинность,,
432,12,нестись,,
433,12,ничто,,
434,12,ночной,,
435,12,одинокий,,
436,12,оставаться,,
437,12,отдавать,,
438,12,познавать,,
439,12,посещать,,
440,12,почить,,
441,12,прохладный,,
442,12,прощаться,,
443,12,пылкий,,
444,12,ряд,,
445,12,светило,,
446,12,склонять,,
447,12,снова,,
448,12,стадо,,
449,12,стенание,,
450,12,страх,,
451,12,стрела,,
452,12,улетать,,
453,12,урна,,
454,11,безвестный,,
455,11,беспечный,,
456,11,благой,,
457,11,блаженный,,
458,11,брань,,
459,11,вдали,,
460,11,вести,,
461,11,вихорь,,
462,11,вкруг,,
463,11,воскрешать,,
464,11,воспевать,,
465,11,глухой,,
466,11,греметь,,
467,11,добродетель,,
468,11,душистый,,
469,11,коварный,,
470,11,кончина,,
471,11,крест,,
472,11,ласка,,
473,11,лицо,,
474,11,лишать,,
475,11,лоно,,
476,11,мертвый,,
477,11,минутный,,
478,11,минуть,,
479,11,напрасный,,
480,11,наслаждаться,,
481,11,наставать,,
482,11,озарять,,
483,11,осень,,
484,11,память,,
485,11,песнь,,
486,11,плакать,,
487,11,покров,,
488,11,призывать,,
489,11,прохлада,,
490,11,птичка,,
491,11,скрывать,,
492,11,слышный,,
493,11,сражать,,
494,11,стремиться,,
495,11,тишь,,
496,11,трава,,
497,11,туда,,
498,11,тщетно,,
499,11,тяжкий,,
500,11,хороший,,
501,11,чаша,,
502,11,черта,,
503,10,блеснуть,,
504,10,богиня,,
505,10,ввек,,
506,10,вечно,,
507,10,вздыхать,,
508,10,влечь,,
509,10,воздух,,
510,10,восхищение,,
511,10,всюду,,
512,10,гнев,,
513,10,горький,,
514,10,гроза,,
515,10,грустный,,
516,10,дело,,
517,10,должный,,
518,10,задумчивый,,
519,10,звон,,
520,10,кой,,
521,10,колыбель,,
522,10,кругом,,
523,10,лютый,,
524,10,мучение,,
525,10,невольно,,
526,10,нина,,
527,10,обманчивый,,
528,10,озеро,,
529,10,осенний,,
530,10,пир,,
531,10,повторять,,
532,10,пойти,,
533,10,помнить,,
534,10,порок,,
535,10,прежде,,
536,10,приводить,,
537,10,пышный,,
538,10,расставаться,,
539,10,роптать,,
540,10,ручеек,,
541,10,садиться,,
542,10,самый,,
543,10,слабый,,
544,10,спокойствие,,
545,10,стезя,,
546,10,столь,,
547,10,сторона,,
548,10,стоять,,
549,10,сюда,,
550,10,труд,,
551,10,уединение,,
552,10,уныло,,
553,10,хижина,,
554,10,холодный,,
555,10,чужой,,
556,9,близкий,,
557,9,бой,,
558,9,быстро,,
559,9,велеть,,
560,9,вершина,,
561,9,вещать,,
562,9,взгляд,,
563,9,воскресать,,
564,9,горе,,
565,9,губительный,,
566,9,даль,,
567,9,делить,,
568,9,дол,,
569,9,дружество,,
570,9,желанный,,
571,9,заблуждение,,
572,9,звездочка,,
573,9,зыбкий,,
574,9,зыбь,,
575,9,кровавый,,
576,9,лавр,,
577,9,летать,,
578,9,лида,,
579,9,литься,,
580,9,лобзать,,
581,9,любимый,,
582,9,молить,,
583,9,муза,,
584,9,обманывать,,
585,9,окрестность,,
586,9,подобно,,
587,9,поэт,,
588,9,предел,,
589,9,прерывать,,
590,9,приют,,
591,9,промчаться,,
592,9,протекший,,
593,9,разделять,,
594,9,разливать,,
595,9,ранний,,
596,9,рассыпать,,
597,9,ребенок,,
598,9,свидетель,,
599,9,свобода,,
600,9,седой,,
601,9,сельский,,
602,9,сколько,,
603,9,сливать,,
604,9,слух,,
605,9,смеяться,,
606,9,смиренный,,
607,9,стопа,,
608,9,суета,,
609,9,счастливец,,
610,9,темный,,
611,9,ум,,
612,9,услышать,,
613,9,усталый,,
614,9,утешать,,
615,9,щит,,
616,8,бессмертие,,
617,8,благословлять,,
618,8,ближний,,
619,8,близ,,
620,8,богатство,,
621,8,бор,,
622,8,бремя,,
623,8,быстрый,,
624,8,вера,,
625,8,взирать,,
626,8,вокруг,,
627,8,восходить,,
628,8,вянуть,,
629,8,глядеть,,
630,8,дверь,,
631,8,дерево,,
632,8,длань,,
633,8,днесь,,
634,8,дом,,
635,8,дорогой,,
636,8,душевный,,
637,8,дым,,
638,8,жар,,
639,8,завтра,,
640,8,зеленый,,
641,8,злак,,
642,8,золото,,
643,8,ива,,
644,8,иметь,,
645,8,катиться,,
646,8,кипарис,,
647,8,клятва,,
648,8,кончать,,
649,8,конь,,
650,8,лазурь,,
651,8,лик,,
652,8,любовия,,
653,8,мгла,,
654,8,мирт,,
655,8,младенец,,
656,8,мниться,,
657,8,моление,,
658,8,молитва,,
659,8,надменный,,
660,8,незабвенный,,
661,8,неумолимый,,
662,8,нива,,
663,8,нога,,
664,8,ныне,,
665,8,обращать,,
666,8,объять,,
667,8,окрылять,,
668,8,перст,,
669,8,пловец,,
670,8,победа,,
671,8,поблекнуть,,
672,8,погасать,,
673,8,потухать,,
674,8,преклонять,,
675,8,приходить,,
676,8,проводить,,
677,8,птица,,
678,8,равнина,,
679,8,радостный,,
680,8,разливаться,,
681,8,разлучать,,
682,8,рано,,
683,8,сад,,
684,8,сверкать,,
685,8,светить,,
686,8,свист,,
687,8,сияние,,
688,8,славный,,
689,8,слушать,,
690,8,спокойно,,
691,8,страстный,,
692,8,страшиться,,
693,8,творец,,
694,8,тьма,,
695,8,умчать,,
696,8,упасть,,
697,8,упоение,,
698,8,упоить,,
699,8,уснуть,,
700,8,утешаться,,
701,8,утомленный,,
702,8,утренний,,
703,8,хлад,,
704,8,часы,,
705,8,чувствовать,,
706,8,чужбина,,
707,7,аромат,,
708,7,бедствие,,
709,7,божество,,
710,7,брать,,
711,7,вдохновение,,
712,7,верно,,
713,7,вечность,,
714,7,веять,,
715,7,влачить,,
716,7,вопль,,
717,7,восток,,
718,7,восхищать,,
719,7,вселенная,,
720,7,вспоминать,,
721,7,высота,,
722,7,глушь,,
723,7,голубой,,
724,7,горячий,,
725,7,гробница,,
726,7,грустить,,
727,7,долг,,
728,7,дорога,,
729,7,драгоценный,,
730,7,древесный,,
731,7,задумчиво,,
732,7,запад,,
733,7,зной,,
734,7,игра,,
735,7,игривый,,
736,7,истина,,
737,7,источник,,
738,7,кальфа,,
739,7,киприд,,
740,7,коса,,
741,7,крылатый,,
742,7,лазоревый,,
743,7,ландыш,,
744,7,ланита,,
745,7,лелеять,,
746,7,любоваться,,
747,7,мелькать,,
748,7,милая,,
749,7,молва,,
750,7,навсегда,,
751,7,небосклон,,
752,7,незримый,,
753,7,никогда,,
754,7,одевать,,
755,7,оживлять,,
756,7,осенять,,
757,7,остаток,,
758,7,пастух,,
759,7,пелена,,
760,7,пленительный,,
761,7,пленять,,
762,7,плыть,,
763,7,полночь,,
764,7,предмет,,
765,7,преставать,,
766,7,приветный,,
767,7,прижимать,,
768,7,простой,,
769,7,равнодушный,,
770,7,резвиться,,
771,7,робкий,,
772,7,рожать,,
773,7,сбываться,,
774,7,свирепый,,
775,7,свободный,,
776,7,сильный,,
777,7,сорвать,,
778,7,столько,,
779,7,сумрачный,,
780,7,супруг,,
781,7,тифис,,
782,7,томиться,,
783,7,тосковать,,
784,7,тревожить,,
785,7,трепет,,
786,7,тучный,,
787,7,тяготить,,
788,7,увядать,,
789,7,ужель,,
790,7,уносить,,
791,7,феб,,
792,7,царство,,
793,7,целый,,
794,7,черный,,
795,7,честь,,
796,7,эфир,,
797,6,алтарь,,
798,6,бездна,,
799,6,безмятежный,,
800,6,белый,,
801,6,битва,,
802,6,блестящий,,
803,6,бранный,,
804,6,бывалый,,
805,6,верить,,
806,6,весело,,
807,6,вина,,
808,6,влага,,
809,6,власть,,
810,6,воздушный,,
811,6,возмущать,,
812,6,гармония,,
813,6,гибельный,,
814,6,голова,,
815,6,дальный,,
816,6,денница,,
817,6,домашний,,
818,6,доска,,
819,6,досуг,,
820,6,дочь,,
821,6,дышет,,
822,6,житель,,
823,6,забота,,
824,6,завеса,,
825,6,закат,,
826,6,заснуть,,
827,6,звонкий,,
828,6,изредка,,
829,6,иногда,,
830,6,иной,,
831,6,клясться,,
832,6,корабль,,
833,6,кровный,,
834,6,кумир,,
835,6,ласкать,,
836,6,лето,,
837,6,липа,,
838,6,людмила,,
839,6,мгновенно,,
840,6,минувший,,
841,6,много,,
842,6,мурава,,
843,6,надежный,,
844,6,назад,,
845,6,неверный,,
846,6,нежить,,
847,6,нектар,,
848,6,ничтожный,,
849,6,носить,,
850,6,нужный,,
851,6,обожать,,
852,6,обольщать,,
853,6,обретать,,
854,6,окно,,
855,6,оковы,,
856,6,окроплять,,
857,6,олтарь,,
858,6,омрачать,,
859,6,осиротелый,,
860,6,отдыхать,,
861,6,отеческий,,
862,6,отзыв,,
863,6,отзываться,,
864,6,падение,,
865,6,пепел,,
866,6,песнопение,,
867,6,плод,,
868,6,погибель,,
869,6,погружать,,
870,6,подъять,,
871,6,поздний,,
872,6,пока,,
873,6,покоиться,,
874,6,покрываться,,
875,6,полет,,
876,6,полночный,,
877,6,поникать,,
878,6,поражать,,
879,6,порхать,,
880,6,посреди,,
881,6,постигать,,
882,6,постыдный,,
883,6,потуплять,,
884,6,презирать,,
885,6,пристань,,
886,6,пускай,,
887,6,пустой,,
888,6,развалины,,
889,6,речь,,
890,6,родные,,
891,6,розовый,,
892,6,роптание,,
893,6,саул,,
894,6,свежий,,
895,6,свершать,,
896,6,сения,,
897,6,сестра,,
898,6,сирый,,
899,6,скитаться,,
900,6,слезный,,
901,6,сметь,,
902,6,смирять,,
903,6,сонм,,
904,6,сопутница,,
905,6,спасать,,
906,6,спускаться,,
907,6,сребрить,,
908,6,старец,,
909,6,стебель,,
910,6,судьбина,,
911,6,суждено,,
912,6,суровый,,
913,6,сходить,,
914,6,счастливо,,
915,6,тайна,,
916,6,терпение,,
917,6,томить,,
918,6,трепетание,,
919,6,трепетный,,
920,6,тропа,,
921,6,тщетный,,
922,6,удар,,
923,6,улыбаться,,
924,6,факел,,
925,6,хранитель,,
926,6,хранить,,
927,6,царица,,
928,6,цветущий,,
929,6,цель,,
930,6,чертог,,
931,6,эрминия,,
932,5,амур,,
933,5,ангельский,,
934,5,безвременный,,
935,5,беседа,,
936,5,беспечно,,
937,5,бестрепетный,,
938,5,благость,,
939,5,более,,
940,5,больной,,
941,5,борьба,,
942,5,бояться,,
943,5,брат,,
944,5,валиться,,
945,5,вдыхать,,
946,5,весть,,
947,5,видно,,
948,5,виться,,
949,5,властелин,,
950,5,волшебница,,
951,5,восторженный,,
952,5,враждебный,,
953,5,вспоминание,,
954,5,вчера,,
955,5,гнездо,,
956,5,гордость,,
957,5,горний,,
958,5,гостеприимный,,
959,5,готовить,,
960,5,град,,
961,5,грация,,
962,5,грядущий,,
963,5,дань,,
964,5,дарить,,
965,5,детство,,
966,5,достойный,,
967,5,древний,,
968,5,древность,,
969,5,дщерь,,
970,5,дымный,,
971,5,живить,,
972,5,жизнить,,
973,5,журчание,,
974,5,завидный,,
975,5,завидовать,,
976,5,зажигать,,
977,5,закон,,
978,5,закрывать,,
979,5,засыпать,,
980,5,затмевать,,
981,5,звучный,,
982,5,зло,,
983,5,злодей,,
984,5,искусство,,
985,5,истреблять,,
986,5,кажется,,
987,5,костер,,
988,5,красавица,,
989,5,кровля,,
990,5,кружиться,,
991,5,кручина,,
992,5,лавровый,,
993,5,лебедь,,
994,5,легкокрылый,,
995,5,летний,,
996,5,листок,,
997,5,лишенный,,
998,5,лобзание,,
999,5,лучь,,
1000,5,льстить,,
1001,5,мавзолей,,
1002,5,мгновенный,,
1003,5,меланхолия,,
1004,5,могильный,,
1005,5,молиться,,
1006,5,молния,,
1007,5,молчаливый,,
1008,5,молчать,,
1009,5,мох,,
1010,5,мчаться,,
1011,5,мшистый,,
1012,5,мятежный,,
1013,5,награждать,,
1014,5,назначать,,
1015,5,напоминать,,
1016,5,невозвратный,,
1017,5,недуг,,
1018,5,нежно,,
1019,5,нежность,,
1020,5,неразлучный,,
1021,5,несчастие,,
1022,5,нигде,,
1023,5,обнимать,,
1024,5,оглашать,,
1025,5,одр,,
1026,5,оживляться,,
1027,5,ожидать,,
1028,5,опускать,,
1029,5,отдаление,,
1030,5,отнимать,,
1031,5,отцветать,,
1032,5,отягчать,,
1033,5,пастырь,,
1034,5,пена,,
1035,5,передавать,,
1036,5,передо,,
1037,5,переживать,,
1038,5,плескать,,
1039,5,поверять,,
1040,5,погибший,,
1041,5,пожелтеть,,
1042,5,позабывать,,
1043,5,поздно,,
1044,5,полюбить,,
1045,5,помедлить,,
1046,5,понимать,,
1047,5,послушный,,
1048,5,потерять,,
1049,5,праздность,,
1050,5,представать,,
1051,5,приветливый,,
1052,5,приговор,,
1053,5,пришелец,,
1054,5,приятно,,
1055,5,провидение,,
1056,5,провожать,,
1057,5,продлять,,
1058,5,прозрачный,,
1059,5,пролететь,,
1060,5,просыпаться,,
1061,5,прошлый,,
1062,5,прощальный,,
1063,5,птенец,,
1064,5,разлюблять,,
1065,5,рана,,
1066,5,рассевать,,
1067,5,рассыпаться,,
1068,5,рев,,
1069,5,робко,,
1070,5,рог,,
1071,5,родительский,,
1072,5,рой,,
1073,5,роскошный,,
1074,5,рубеж,,
1075,5,рыдать,,
1076,5,сатурн,,
1077,5,свершаться,,
1078,5,светильник,,
1079,5,семья,,
1080,5,сиротка,,
1081,5,сладко,,
1082,5,слепой,,
1083,5,смирение,,
1084,5,смущать,,
1085,5,собака,,
1086,5,совершать,,
1087,5,соединять,,
1088,5,сокрушать,,
1089,5,сомнение,,
1090,5,сосна,,
1091,5,союз,,
1092,5,сплетать,,
1093,5,спокойный,,
1094,5,сребристый,,
1095,5,струиться,,
1096,5,суд,,
1097,5,считать,,
1098,5,твердить,,
1099,5,творение,,
1100,5,терем,,
1101,5,тусклый,,
1102,5,увядший,,
1103,5,ударять,,
1104,5,укрываться,,
1105,5,умиление,,
1106,5,урок,,
1107,5,устремлять,,
1108,5,усыпление,,
1109,5,утешение,,
1110,5,фимиам,,
1111,5,храбрый,,
1112,5,цевница,,
1113,5,чадо,,
1114,5,челнок,,
1115,5,чтить,,
1116,5,шептать,,
1117,5,широкий,,
1118,5,элиза,,
1119,5,эхо,,
1120,4,аврора,,
1121,4,алый,,
1122,4,байкал,,
1123,4,бархатный,,
1124,4,башня,,
1125,4,безжалостный,,
1126,4,белогрудый,,
1127,4,бессильный,,
1128,4,бить,,
1129,4,благотворный,,
1130,4,бледнеть,,
1131,4,близко,,
1132,4,блистательный,,
1133,4,божий,,
1134,4,болезнь,,
1135,4,большой,,
1136,4,бренный,,
1137,4,бывало,,
1138,4,вал,,
1139,4,вверять,,
1140,4,ведать,,
1141,4,великий,,
1142,4,верх,,
1143,4,ветрило,,
1144,4,взывать,,
1145,4,видать,,
1146,4,видный,,
1147,4,висеть,,
1148,4,власы,,
1149,4,внезапно,,
1150,4,внушать,,
1151,4,возвещать,,
1152,4,воздыхание,,
1153,4,война,,
1154,4,волноваться,,
1155,4,воля,,
1156,4,воображение,,
1157,4,вопрошать,,
1158,4,воспарять,,
1159,4,восхищенный,,
1160,4,врата,,
1161,4,всемощный,,
1162,4,вставать,,
1163,4,всякий,,
1164,4,гибкий,,
1165,4,гнать,,
1166,4,готовый,,
1167,4,гранитный,,
1168,4,грозить,,
1169,4,громкий,,
1170,4,гул,,
1171,4,далеко,,
1172,4,девица,,
1173,4,дивный,,
1174,4,дно,,
1175,4,добыча,,
1176,4,довольный,,
1177,4,доколе,,
1178,4,долгий,,
1179,4,доля,,
1180,4,дорида,,
1181,4,дохнуть,,
1182,4,дубравный,,
1183,4,жажда,,
1184,4,жалеть,,
1185,4,жалкий,,
1186,4,зависть,,
1187,4,задумываться,,
1188,4,заменять,,
1189,4,запылать,,
1190,4,зарастать,,
1191,4,здешний,,
1192,4,зелень,,
1193,4,зеркало,,
1194,4,зеркальный,,
1195,4,зима,,
1196,4,злачный,,
1197,4,злобный,,
1198,4,изливать,,
1199,4,искра,,
1200,4,искренний,,
1201,4,картина,,
1202,4,клик,,
1203,4,клясть,,
1204,4,колено,,
1205,4,колокол,,
1206,4,колыхать,,
1207,4,кольцо,,
1208,4,косой,,
1209,4,краткий,,
1210,4,крик,,
1211,4,ладья,,
1212,4,лампада,,
1213,4,легкое,,
1214,4,ленивый,,
1215,4,лесок,,
1216,4,ложе,,
1217,4,ложный,,
1218,4,лукавый,,
1219,4,манить,,
1220,4,мгновение,,
1221,4,медленно,,
1222,4,мертвец,,
1223,4,младенчество,,
1224,4,мотылек,,
1225,4,мощный,,
1226,4,мраморный,,
1227,4,награда,,
1228,4,надгробный,,
1229,4,называть,,
1230,4,нарушать,,
1231,4,начинать,,
1232,4,неведомый,,
1233,4,невольный,,
1234,4,незнакомый,,
1235,4,неизменный,,
1236,4,несравненный,,
1237,4,нетленный,,
1238,4,никто,,
1239,4,нить,,
1240,4,обман,,
1241,4,обольщение,,
1242,4,обреченный,,
1243,4,общество,,
1244,4,одежда,,
1245,4,оживать,,
1246,4,ожидание,,
1247,4,оканчивать,,
1248,4,океан,,
1249,4,опустеть,,
1250,4,оставить,,
1251,4,отвергать,,
1252,4,отдохновение,,
1253,4,отечество,,
1254,4,отирать,,
1255,4,откуда,,
1256,4,отрава,,
1257,4,отравлять,,
1258,4,отходить,,
1259,4,охранять,,
1260,4,пал,,
1261,4,памятник,,
1262,4,парус,,
1263,4,пение,,
1264,4,пенистый,,
1265,4,пермесса,,
1266,4,пес,,
1267,4,пестрый,,
1268,4,печально,,
1269,4,питаться,,
1270,4,питомец,,
1271,4,племя,,
1272,4,плен,,
1273,4,пленяться,,
1274,4,побеждать,,
1275,4,погребальный,,
1276,4,подземный,,
1277,4,подобный,,
1278,4,подпора,,
1279,4,подымать,,
1280,4,позволять,,
1281,4,позор,,
1282,4,поклонник,,
1283,4,полагать,,
1284,4,полуночный,,
1285,4,помощь,,
1286,4,понестись,,
1287,4,посвящать,,
1288,4,постоять,,
1289,4,поцелуй,,
1290,4,почесть,,
1291,4,почти,,
1292,4,появляться,,
1293,4,преграда,,
1294,4,предаваться,,
1295,4,предвещать,,
1296,4,презрение,,
1297,4,прельщать,,
1298,4,преступление,,
1299,4,привидение,,
1300,4,привлекать,,
1301,4,присутствие,,
1302,4,пришлец,,
1303,4,пробежать,,
1304,4,пробуждаться,,
1305,4,произносить,,
1306,4,пролетать,,
1307,4,пропадать,,
1308,4,прохожий,,
1309,4,прощание,,
1310,4,прямой,,
1311,4,путник,,
1312,4,пышность,,
1313,4,раздаваться,,
1314,4,разрушение,,
1315,4,разум,,
1316,4,раскат,,
1317,4,раскидывать,,
1318,4,рассудок,,
1319,4,реветь,,
1320,4,редко,,
1321,4,риза,,
1322,4,рисовать,,
1323,4,ропот,,
1324,4,россия,,
1325,4,рощица,,
1326,4,свирель,,
1327,4,связь,,
1328,4,сетовать,,
1329,4,сеча,,
1330,4,синий,,
1331,4,скучный,,
1332,4,сладострастие,,
1333,4,слышаться,,
1334,4,смолкать,,
1335,4,снег,,
1336,4,сновидение,,
1337,4,согласный,,
1338,4,соединение,,
1339,4,созревать,,
1340,4,сокровище,,
1341,4,сохранять,,
1342,4,сплетаться,,
1343,4,стан,,
1344,4,стараться,,
1345,4,старость,,
1346,4,степь,,
1347,4,стих,,
1348,4,стлаться,,
1349,4,стократ,,
1350,4,столица,,
1351,4,столп,,
1352,4,стонать,,
1353,4,страдать,,
1354,4,страждущий,,
1355,4,строгий,,
1356,4,стыдиться,,
1357,4,стыдливый,,
1358,4,сулить,,
1359,4,съединять,,
1360,4,сырой,,
1361,4,таинство,,
1362,4,также,,
1363,4,темнеть,,
1364,4,тенистый,,
1365,4,тибулл,,
1366,4,тибулла,,
1367,4,товарищ,,
1368,4,торжественно,,
1369,4,три,,
1370,4,тягостный,,
1371,4,тяжелый,,
1372,4,убежище,,
1373,4,убогий,,
1374,4,угнетенный,,
1375,4,уголок,,
1376,4,удалять,,
1377,4,указывать,,
1378,4,украдкой,,
1379,4,умчаться,,
1380,4,утес,,
1381,4,утихать,,
1382,4,утолять,,
1383,4,утрачивать,,
1384,4,участие,,
1385,4,фантазия,,
1386,4,филомела,,
1387,4,хвала,,
1388,4,хоровод,,
1389,4,хребет,,
1390,4,цена,,
1391,4,цинтия,,
1392,4,чета,,
1393,4,чрез,,
1394,4,шаг,,
1395,4,шепот,,
1396,4,шорох,,
1397,4,щека,,
1398,4,эфирный,,
1399,4,юдоль,,
1400,4,яркий,,
1401,4,ярый,,
1402,3,аминта,,
1403,3,бег,,
1404,3,бедность,,
1405,3,безмолвно,,
1406,3,безмолвствовать,,
1407,3,безоблачный,,
1408,3,бесплодный,,
1409,3,благодарить,,
1410,3,благословенный,,
1411,3,благотворение,,
1412,3,благоухание,,
1413,3,благоухать,,
1414,3,близь,,
1415,3,божественный,,
1416,3,бороться,,
1417,3,бывать,,
1418,3,былой,,
1419,3,бытие,,
1420,3,вакх,,
1421,3,вблизи,,
1422,3,ведомый,,
1423,3,веко,,
1424,3,вековой,,
1425,3,величавый,,
1426,3,венчать,,
1427,3,верность,,
1428,3,веселить,,
1429,3,веселиться,,
1430,3,ветвистый,,
1431,3,ветхий,,
1432,3,взять,,
1433,3,видение,,
1434,3,вовсе,,
1435,3,вожатать,,
1436,3,вождь,,
1437,3,возвращуся,,
1438,3,воздыхать,,
1439,3,воин,,
1440,3,вой,,
1441,3,волновать,,
1442,3,воспламенять,,
1443,3,воспоминать,,
1444,3,восточный,,
1445,3,восхищаться,,
1446,3,восход,,
1447,3,всесильный,,
1448,3,встревожить,,
1449,3,встрепенуться,,
1450,3,выступать,,
1451,3,гибель,,
1452,3,гимн,,
1453,3,глазок,,
1454,3,гласить,,
1455,3,глубина,,
1456,3,горлица,,
1457,3,грясти,,
1458,3,губить,,
1459,3,деваться,,
1460,3,делиться,,
1461,3,держать,,
1462,3,десница,,
1463,3,длинный,,
1464,3,добро,,
1465,3,доселе,,
1466,3,доставлять,,
1467,3,достигать,,
1468,3,достоинство,,
1469,3,драга,,
1470,3,драгай,,
1471,3,дремота,,
1472,3,дрожать,,
1473,3,дряхлый,,
1474,3,едвин,,
1475,3,единственный,,
1476,3,единый,,
1477,3,ель,,
1478,3,жадный,,
1479,3,жалобный,,
1480,3,журчать,,
1481,3,заблуждаться,,
1482,3,забываться,,
1483,3,заветный,,
1484,3,завывание,,
1485,3,залог,,
1486,3,замирать,,
1487,3,замок,,
1488,3,запах,,
1489,3,запечатлевать,,
1490,3,запустение,,
1491,3,зарница,,
1492,3,заступ,,
1493,3,затихать,,
1494,3,зашуметь,,
1495,3,звездный,,
1496,3,зверолов,,
1497,3,здоровье,,
1498,3,здравствовать,,
1499,3,зевес,,
1500,3,зеленеть,,
1501,3,зимний,,
1502,3,злоба,,
1503,3,знамя,,
1504,3,знатность,,
1505,3,зов,,
1506,3,зримый,,
1507,3,зря,,
1508,3,извивистый,,
1509,3,изгнанник,,
1510,3,изголовье,,
1511,3,издали,,
1512,3,изливаться,,
1513,3,изменница,,
1514,3,изображать,,
1515,3,изрыть,,
1516,3,имя,,
1517,3,ионафан,,
1518,3,исполнять,,
1519,3,испытывать,,
1520,3,исторгать,,
1521,3,исцелять,,
1522,3,капань,,
1523,3,касаться,,
1524,3,качать,,
1525,3,клубиться,,
1526,3,ключ,,
1527,3,ковер,,
1528,3,косец,,
1529,3,котор,,
1530,3,красный,,
1531,3,кротость,,
1532,3,кружить,,
1533,3,крыть,,
1534,3,ланит,,
1535,3,лень,,
1536,3,лесть,,
1537,3,лет,,
1538,3,лилейный,,
1539,3,листочек,,
1540,3,лобызать,,
1541,3,луговой,,
1542,3,любимец,,
1543,3,любимица,,
1544,3,любовник,,
1545,3,май,,
1546,3,майский,,
1547,3,мало,,
1548,3,мелькнуть,,
1549,3,менее,,
1550,3,месть,,
1551,3,мирно,,
1552,3,многий,,
1553,3,множить,,
1554,3,муж,,
1555,3,мчать,,
1556,3,мщение,,
1557,3,мыслие,,
1558,3,навес,,
1559,3,наводить,,
1560,3,напасть,,
1561,3,научать,,
1562,3,небрежно,,
1563,3,нева,,
1564,3,невозвратимый,,
1565,3,неволя,,
1566,3,незнаемый,,
1567,3,неизбежный,,
1568,3,неизвестный,,
1569,3,ненастный,,
1570,3,неопытный,,
1571,3,непогода,,
1572,3,непостоянный,,
1573,3,непритворный,,
1574,3,новгород,,
1575,3,носиться,,
1576,3,нужда,,
1577,3,обвивать,,
1578,3,обитать,,
1579,3,область,,
1580,3,обольститель,,
1581,3,обширный,,
1582,3,общий,,
1583,3,огромный,,
1584,3,одеваться,,
1585,3,оковывать,,
1586,3,окрест,,
1587,3,окрестный,,
1588,3,окружать,,
1589,3,омывать,,
1590,3,онемевать,,
1591,3,опадать,,
1592,3,опираться,,
1593,3,опустелый,,
1594,3,опустошать,,
1595,3,опыт,,
1596,3,орошать,,
1597,3,освящать,,
1598,3,осиротеть,,
1599,3,останавливаться,,
1600,3,остров,,
1601,3,острый,,
1602,3,ответ,,
1603,3,открытый,,
1604,3,отлетать,,
1605,3,отторгать,,
1606,3,отце,,
1607,3,отчаяние,,
1608,3,отческий,,
1609,3,охладевать,,
1610,3,очаровывать,,
1611,3,ощущать,,
1612,3,пагубный,,
1613,3,падать,,
1614,3,падший,,
1615,3,палата,,
1616,3,пар,,
1617,3,пара,,
1618,3,парк,,
1619,3,певать,,
1620,3,певица,,
1621,3,первенец,,
1622,3,пернатое,,
1623,3,пернатый,,
1624,3,песок,,
1625,3,печалие,,
1626,3,пировать,,
1627,3,пламенеть,,
1628,3,пламенно,,
1629,3,плескаться,,
1630,3,поведывать,,
1631,3,повергать,,
1632,3,повеять,,
1633,3,подернуть,,
1634,3,подходить,,
1635,3,показывать,,
1636,3,покойный,,
1637,3,покрывало,,
1638,3,полететь,,
1639,3,полоса,,
1640,3,полуоткрытый,,
1641,3,помогать,,
1642,3,попирать,,
1643,3,порыв,,
1644,3,поселянин,,
1645,3,посланница,,
1646,3,послышаться,,
1647,3,поспешать,,
1648,3,поставлять,,
1649,3,посылать,,
1650,3,потомство,,
1651,3,потушить,,
1652,3,похищать,,
1653,3,правда,,
1654,3,правдивый,,
1655,3,право,,
1656,3,предавать,,
1657,3,предпочитать,,
1658,3,представлять,,
1659,3,пресекать,,
1660,3,признание,,
1661,3,приманка,,
1662,3,приманчивый,,
1663,3,примерный,,
1664,3,приметно,,
1665,3,примиряться,,
1666,3,приютный,,
1667,3,пробивать,,
1668,3,проникать,,
1669,3,пропасть,,
1670,3,проститься,,
1671,3,прохладна,,
1672,3,прочь,,
1673,3,пурпурный,,
1674,3,пускаться,,
1675,3,радостно,,
1676,3,разлучение,,
1677,3,размышление,,
1678,3,разрушать,,
1679,3,разрывать,,
1680,3,райский,,
1681,3,рамена,,
1682,3,расти,,
1683,3,расторгать,,
1684,3,рвать,,
1685,3,ресница,,
1686,3,решать,,
1687,3,решаться,,
1688,3,роскошь,,
1689,3,светло,,
1690,3,свидание,,
1691,3,свободно,,
1692,3,священно,,
1693,3,сеть,,
1694,3,сильно,,
1695,3,синева,,
1696,3,скат,,
1697,3,склоняться,,
1698,3,скука,,
1699,3,славить,,
1700,3,сливаться,,
1701,3,слишком,,
1702,3,слияние,,
1703,3,служить,,
1704,3,смущенный,,
1705,3,смягчать,,
1706,3,снимать,,
1707,3,собор,,
1708,3,создание,,
1709,3,сокровенный,,
1710,3,сонный,,
1711,3,сопровождать,,
1712,3,соренто,,
1713,3,спасение,,
1714,3,спаситель,,
1715,3,спешивать,,
1716,3,спутник,,
1717,3,стекло,,
1718,3,стень,,
1719,3,стеснять,,
1720,3,столетний,,
1721,3,страж,,
1722,3,стража,,
1723,3,страшить,,
1724,3,строй,,
1725,3,стяжать,,
1726,3,суетный,,
1727,3,таиться,,
1728,3,тайком,,
1729,3,талант,,
1730,3,твердый,,
1731,3,темница,,
1732,3,темнота,,
1733,3,теплый,,
1734,3,тесный,,
1735,3,ткань,,
1736,3,тленный,,
1737,3,томление,,
1738,3,торжество,,
1739,3,точно,,
1740,3,тратить,,
1741,3,тревожный,,
1742,3,трон,,
1743,3,тропинка,,
1744,3,труба,,
1745,3,труп,,
1746,3,тягчить,,
1747,3,увлекать,,
1748,3,удаляться,,
1749,3,уединиться,,
1750,3,ужасно,,
1751,3,ужели,,
1752,3,украдка,,
1753,3,уметь,,
1754,3,уповать,,
1755,3,упрек,,
1756,3,усеивать,,
1757,3,усердный,,
1758,3,условный,,
1759,3,успокоение,,
1760,3,устремляться,,
1761,3,утомлять,,
1762,3,утрата,,
1763,3,ухо,,
1764,3,уходить,,
1765,3,участь,,
1766,3,фиалка,,
1767,3,фингал,,
1768,3,фортуна,,
1769,3,чары,,
1770,3,часовня,,
1771,3,чаща,,
1772,3,чистота,,
1773,3,читать,,
1774,3,чреда,,
1775,3,шепнуть,,
1776,3,шлем,,
1777,3,шопот,,
1778,3,эрминий,,
1779,3,явление,,
1780,3,яд,,
1781,3,язык,,
1782,3,ясень,,
1783,3,ясно,,
1784,2,epigraph,,
1785,2,адский,,
1786,2,азовский,,
1787,2,александр,,
1788,2,ароматный,,
1789,2,багрянить,,
1790,2,багряный,,
1791,2,бард,,
1792,2,беглый,,
1793,2,бездействие,,
1794,2,бездонный,,
1795,2,безопасный,,
1796,2,безответный,,
1797,2,безотрадный,,
1798,2,безумный,,
1799,2,безумство,,
1800,2,бесприютный,,
1801,2,бесстрастно,,
1802,2,бесчисленный,,
1803,2,бесчувствие,,
1804,2,биться,,
1805,2,благоговение,,
1806,2,благодатный,,
1807,2,благодать,,
1808,2,благодетель,,
1809,2,благосклонный,,
1810,2,благославлять,,
1811,2,благотворить,,
1812,2,блаженствовать,,
1813,2,бледность,,
1814,2,близость,,
1815,2,блюститель,,
1816,2,богатый,,
1817,2,боже,,
1818,2,болезненный,,
1819,2,больше,,
1820,2,борзая,,
1821,2,бразда,,
1822,2,братия,,
1823,2,брачный,,
1824,2,бред,,
1825,2,будущее,,
1826,2,быстрота,,
1827,2,валисить,,
1828,2,варвар,,
1829,2,вдаль,,
1830,2,вдоль,,
1831,2,веровать,,
1832,2,вероломный,,
1833,2,вероломство,,
1834,2,весло,,
1835,2,вестник,,
1836,2,вестница,,
1837,2,ветка,,
1838,2,вешний,,
1839,2,веяние,,
1840,2,взвиваться,,
1841,2,взвывать,,
1842,2,взноситься,,
1843,2,взывание,,
1844,2,виноград,,
1845,2,витать,,
1846,2,витязь,,
1847,2,вкус,,
1848,2,владычица,,
1849,2,вливать,,
1850,2,влюбляться,,
1851,2,внимание,,
1852,2,вод,,
1853,2,водить,,
1854,2,военный,,
1855,2,возврат,,
1856,2,воздвигать,,
1857,2,возмочь,,
1858,2,возница,,
1859,2,возносить,,
1860,2,возрастать,,
1861,2,вол,,
1862,2,волнующий,,
1863,2,воспитывать,,
1864,2,воспламеняться,,
1865,2,восставать,,
1866,2,востать,,
1867,2,восшуметь,,
1868,2,вперять,,
1869,2,впечатление,,
1870,2,вражеский,,
1871,2,вручать,,
1872,2,всевышний,,
1873,2,всегдашний,,
1874,2,вселенный,,
1875,2,всечастно,,
1876,2,вспархивать,,
1877,2,вспыхивать,,
1878,2,встреча,,
1879,2,встречаться,,
1880,2,вторить,,
1881,2,выплывать,,
1882,2,выситься,,
1883,2,вышина,,
1884,2,гадатель,,
1885,2,гаснуть,,
1886,2,гибнуть,,
1887,2,глубоко,,
1888,2,глядеться,,
1889,2,говор,,
1890,2,голый,,
1891,2,гонение,,
1892,2,гонимый,,
1893,2,гоняться,,
1894,2,гордец,,
1895,2,гордиться,,
1896,2,гордыня,,
1897,2,горестно,,
1898,2,город,,
1899,2,гостья,,
1900,2,граница,,
1901,2,груда,,
1902,2,грустно,,
1903,2,гулять,,
1904,2,густеть,,
1905,2,д,,
1906,2,даровать,,
1907,2,дафна,,
1908,2,дача,,
1909,2,движение,,
1910,2,дебри,,
1911,2,девственный,,
1912,2,дерзкий,,
1913,2,детский,,
1914,2,дитя,,
1915,2,днестр,,
1916,2,доблесть,,
1917,2,доброта,,
1918,2,довольно,,
1919,2,догорать,,
1920,2,дождь,,
1921,2,долетать,,
1922,2,должно,,
1923,2,домик,,
1924,2,дорожить,,
1925,2,досель,,
1926,2,дотоль,,
1927,2,доходить,,
1928,2,дружина,,
1929,2,дружный,,
1930,2,дряхлеть,,
1931,2,дуновение,,
1932,2,дупло,,
1933,2,душ,,
1934,2,дымиться,,
1935,2,европа,,
1936,2,ея,,
1937,2,жаркий,,
1938,2,жатва,,
1939,2,жать,,
1940,2,жена,,
1941,2,жестокосердый,,
1942,2,живость,,
1943,2,жизненный,,
1944,2,жизния,,
1945,2,жила,,
1946,2,жнец,,
1947,2,жрица,,
1948,2,жумчужный,,
1949,2,жь,,
1950,2,забвенный,,
1951,2,заботливый,,
1952,2,завистливый,,
1953,2,зазвучать,,
1954,2,закипать,,
1955,2,заключать,,
1956,2,замена,,
1957,2,замолкать,,
1958,2,замолчать,,
1959,2,запевать,,
1960,2,заплакать,,
1961,2,зарево,,
1962,2,заставать,,
1963,2,затеплиться,,
1964,2,затмеваться,,
1965,2,заутра,,
1966,2,заходить,,
1967,2,зашептать,,
1968,2,защита,,
1969,2,защитник,,
1970,2,звено,,
1971,2,зев,,
1972,2,зеница,,
1973,2,злато,,
1974,2,знак,,
1975,2,знакомиться,,
1976,2,знойный,,
1977,2,зрелый,,
1978,2,зреться,,
1979,2,избирать,,
1980,2,избранный,,
1981,2,известный,,
1982,2,изглаживать,,
1983,2,изгнание,,
1984,2,изгонять,,
1985,2,излетать,,
1986,2,излияние,,
1987,2,излучистый,,
1988,2,изнуренный,,
1989,2,изображение,,
1990,2,искупать,,
1991,2,испивать,,
1992,2,исполин,,
1993,2,исступление,,
1994,2,истинный,,
1995,2,истлевать,,
1996,2,истребитель,,
1997,2,исходить,,
1998,2,исчислять,,
1999,2,иуда,,
2000,2,казнь,,
2001,2,камена,,
2002,2,капать,,
2003,2,капля,,
2004,2,каратель,,
2005,2,карать,,
2006,2,катить,,
2007,2,кедр,,
2008,2,келья,,
2009,2,кинуть,,
2010,2,кичливый,,
2011,2,кладбище,,
2012,2,клевета,,
2013,2,клялася,,
2014,2,коварство,,
2015,2,колебать,,
2016,2,колебаться,,
2017,2,колыхаться,,
2018,2,конечно,,
2019,2,корень,,
2020,2,корина,,
2021,2,кость,,
2022,2,кошница,,
2023,2,крапива,,
2024,2,красивый,,
2025,2,креп,,
2026,2,крепкий,,
2027,2,кристалл,,
2028,2,кристальный,,
2029,2,крона,,
2030,2,кропить,,
2031,2,круговой,,
2032,2,крутизна,,
2033,2,крыться,,
2034,2,кубок,,
2035,2,курган,,
2036,2,лавра,,
2037,2,лакомый,,
2038,2,лара,,
2039,2,лары,,
2040,2,ласточка,,
2041,2,лестный,,
2042,2,лета,,
2043,2,лилет,,
2044,2,лиственный,,
2045,2,лишаться,,
2046,2,ловить,,
2047,2,ложь,,
2048,2,лора,,
2049,2,льстец,,
2050,2,льститься,,
2051,2,любовный,,
2052,2,малютка,,
2053,2,мария,,
2054,2,мегера,,
2055,2,медь,,
2056,2,мерцание,,
2057,2,месячный,,
2058,2,мечтатель,,
2059,2,милость,,
2060,2,мимо,,
2061,2,миро,,
2062,2,млада,,
2063,2,млеть,,
2064,2,мнить,,
2065,2,могол,,
2066,2,могучий,,
2067,2,модест,,
2068,2,молилася,,
2069,2,молодость,,
2070,2,монастырь,,
2071,2,морской,,
2072,2,мрамор,,
2073,2,мудрец,,
2074,2,мучить,,
2075,2,мысленно,,
2076,2,мыслить,,
2077,2,навевать,,
2078,2,нагой,,
2079,2,надевать,,
2080,2,надзвездный,,
2081,2,надпись,,
2082,2,назначение,,
2083,2,наклонять,,
2084,2,наперсник,,
2085,2,напоить,,
2086,2,наряд,,
2087,2,настоящий,,
2088,2,наступать,,
2089,2,наука,,
2090,2,начало,,
2091,2,начто,,
2092,2,неблагодарный,,
2093,2,небожитель,,
2094,2,невнятный,,
2095,2,недалекий,,
2096,2,недвижимый,,
2097,2,недоставать,,
2098,2,нежданно,,
2099,2,незримо,,
2100,2,неизъяснимый,,
2101,2,нельзя,,
2102,2,немного,,
2103,2,ненавистный,,
2104,2,ненастье,,
2105,2,неотлучный,,
2106,2,непобедимый,,
2107,2,непостижимый,,
2108,2,непреклонный,,
2109,2,неприметно,,
2110,2,непроницаемый,,
2111,2,нередко,,
2112,2,неровный,,
2113,2,несносный,,
2114,2,нестройный,,
2115,2,несть,,
2116,2,несчастливый,,
2117,2,низводить,,
2118,2,низкий,,
2119,2,ниспосылать,,
2120,2,нощь,,
2121,2,нрав,,
2122,2,обвораживать,,
2123,2,обещать,,
2124,2,обилие,,
2125,2,обильный,,
2126,2,облегать,,
2127,2,облегчать,,
2128,2,облеченный,,
2129,2,обломок,,
2130,2,обнаженный,,
2131,2,обновлять,,
2132,2,обновляться,,
2133,2,обносить,,
2134,2,обо,,
2135,2,обольститься,,
2136,2,образец,,
2137,2,обручать,,
2138,2,обычай,,
2139,2,овидий,,
2140,2,огород,,
2141,2,ограда,,
2142,2,однажды,,
2143,2,ожесточенный,,
2144,2,озаренный,,
2145,2,окропляться,,
2146,2,опасность,,
2147,2,оплакивать,,
2148,2,опора,,
2149,2,определение,,
2150,2,определять,,
2151,2,опустошение,,
2152,2,оратай,,
2153,2,орел,,
2154,2,освежать,,
2155,2,освещать,,
2156,2,освещаться,,
2157,2,освобождать,,
2158,2,осеребрить,,
2159,2,осина,,
2160,2,осребренный,,
2161,2,остановлять,,
2162,2,осыпать,,
2163,2,отбрасывать,,
2164,2,отворять,,
2165,2,отвращать,,
2166,2,отдаваться,,
2167,2,отдых,,
2168,2,отмщение,,
2169,2,отомщать,,
2170,2,отпрыгивать,,
2171,2,отражаться,,
2172,2,отсель,,
2173,2,отцовский,,
2174,2,ощущение,,
2175,2,п,,
2176,2,памятный,,
2177,2,пари,,
2178,2,парить,,
2179,2,паря,,
2180,2,пастушка,,
2181,2,пенат,,
2182,2,пенаты,,
2183,2,перебирать,,
2184,2,перенести,,
2185,2,переселяться,,
2186,2,переставать,,
2187,2,перун,,
2188,2,пещера,,
2189,2,пиршество,,
2190,2,плавать,,
2191,2,платить,,
2192,2,плачевный,,
2193,2,плескание,,
2194,2,плечо,,
2195,2,плохо,,
2196,2,поблеклый,,
2197,2,побыть,,
2198,2,повелитель,,
2199,2,повязка,,
2200,2,погасить,,
2201,2,погоревать,,
2202,2,подавать,,
2203,2,податель,,
2204,2,подвластный,,
2205,2,подниматься,,
2206,2,подо,,
2207,2,пожелтелый,,
2208,2,пожертвовать,,
2209,2,покинутый,,
2210,2,покорный,,
2211,2,покоряться,,
2212,2,полдневный,,
2213,2,полезный,,
2214,2,поливаться,,
2215,2,полна,,
2216,2,полнота,,
2217,2,пологий,,
2218,2,полумертвый,,
2219,2,полунощный,,
2220,2,польза,,
2221,2,поля,,
2222,2,поляна,,
2223,2,помост,,
2224,2,помрачать,,
2225,2,помчаться,,
2226,2,понести,,
2227,2,попутный,,
2228,2,порастать,,
2229,2,порфира,,
2230,2,поселять,,
2231,2,посланник,,
2232,2,послужить,,
2233,2,поспешить,,
2234,2,постылый,,
2235,2,потемнеть,,
2236,2,потрясать,,
2237,2,почитать,,
2238,2,почтенный,,
2239,2,почтить,,
2240,2,пояс,,
2241,2,праведный,,
2242,2,правый,,
2243,2,праздник,,
2244,2,предание,,
2245,2,предтеча,,
2246,2,прелестница,,
2247,2,преображать,,
2248,2,прерываться,,
2249,2,пресвитер,,
2250,2,преселяться,,
2251,2,преследовать,,
2252,2,престол,,
2253,2,преступник,,
2254,2,претерпевать,,
2255,2,преходить,,
2256,2,приветливо,,
2257,2,привычный,,
2258,2,пригвождать,,
2259,2,признательный,,
2260,2,призыв,,
2261,2,прилетать,,
2262,2,пример,,
2263,2,примчаться,,
2264,2,принуждение,,
2265,2,прискорбный,,
2266,2,притворный,,
2267,2,приуныть,,
2268,2,приход,,
2269,2,приять,,
2270,2,пробегать,,
2271,2,пробуждение,,
2272,2,проглянуть,,
2273,2,прогонять,,
2274,2,прогулка,,
2275,2,прозвучать,,
2276,2,пролагать,,
2277,2,промысел,,
2278,2,прорицание,,
2279,2,просить,,
2280,2,простереться,,
2281,2,простеть,,
2282,2,простирать,,
2283,2,простота,,
2284,2,пространный,,
2285,2,простуда,,
2286,2,противный,,
2287,2,протяжный,,
2288,2,прошедшее,,
2289,2,прощаяся,,
2290,2,прыгать,,
2291,2,пускать,,
2292,2,пустота,,
2293,2,пустынник,,
2294,2,пчела,,
2295,2,раб,,
2296,2,работа,,
2297,2,рабство,,
2298,2,радовать,,
2299,2,разбивать,,
2300,2,разве,,
2301,2,разговор,,
2302,2,разить,,
2303,2,различать,,
2304,2,разлучаться,,
2305,2,разносить,,
2306,2,разочарованный,,
2307,2,разъяренный,,
2308,2,ран,,
2309,2,раскрывать,,
2310,2,распускать,,
2311,2,рассвет,,
2312,2,расстилать,,
2313,2,рассылать,,
2314,2,растравлять,,
2315,2,рим,,
2316,2,робость,,
2317,2,ров,,
2318,2,родитель,,
2319,2,рождать,,
2320,2,рождение,,
2321,2,розалия,,
2322,2,роковый,,
2323,2,роскошно,,
2324,2,рукоплескание,,
2325,2,русский,,
2326,2,русь,,
2327,2,рушить,,
2328,2,рушиться,,
2329,2,рыдание,,
2330,2,сатурнов,,
2331,2,сбираться,,
2332,2,сваливаться,,
2333,2,свевать,,
2334,2,светиться,,
2335,2,своенравный,,
2336,2,святая,,
2337,2,сгорать,,
2338,2,сгущать,,
2339,2,село,,
2340,2,семейный,,
2341,2,сердечно,,
2342,2,серебряный,,
2343,2,серп,,
2344,2,сжалиться,,
2345,2,сзывать,,
2346,2,синеть,,
2347,2,сион,,
2348,2,сирена,,
2349,2,скитаюся,,
2350,2,склонить,,
2351,2,склонясь,,
2352,2,скованный,,
2353,2,сковывать,,
2354,2,скончаться,,
2355,2,слабость,,
2356,2,слагать,,
2357,2,сладостно,,
2358,2,следовать,,
2359,2,слетайтеся,,
2360,2,служитель,,
2361,2,случаться,,
2362,2,слышно,,
2363,2,смежать,,
2364,2,смело,,
2365,2,смелый,,
2366,2,сменять,,
2367,2,смех,,
2368,2,смиренно,,
2369,2,смолкнуть,,
2370,2,смутный,,
2371,2,смущаться,,
2372,2,смущение,,
2373,2,смятение,,
2374,2,собирать,,
2375,2,собираться,,
2376,2,сова,,
2377,2,согбенный,,
2378,2,согласие,,
2379,2,соглашаться,,
2380,2,согревать,,
2381,2,содрогаться,,
2382,2,соединяться,,
2383,2,созвучие,,
2384,2,сокрушение,,
2385,2,сокрылисить,,
2386,2,сокрытый,,
2387,2,солнечный,,
2388,2,солнышко,,
2389,2,соперник,,
2390,2,соперница,,
2391,2,сосед,,
2392,2,сострадание,,
2393,2,сотворить,,
2394,2,спеть,,
2395,2,сплетясти,,
2396,2,спокойство,,
2397,2,спорить,,
2398,2,справедливый,,
2399,2,спящий,,
2400,2,среда,,
2401,2,средец,,
2402,2,средство,,
2403,2,сретение,,
2404,2,срок,,
2405,2,срывать,,
2406,2,старина,,
2407,2,стенать,,
2408,2,стеречь,,
2409,2,стихать,,
2410,2,стол,,
2411,2,столб,,
2412,2,страдальческий,,
2413,2,странствие,,
2414,2,страстной,,
2415,2,стрекоза,,
2416,2,стройный,,
2417,2,струить,,
2418,2,струяся,,
2419,2,стыд,,
2420,2,судить,,
2421,2,суждение,,
2422,2,схватывать,,
2423,2,сходный,,
2424,2,сыновний,,
2425,2,сыпать,,
2426,2,таить,,
2427,2,твердость,,
2428,2,тело,,
2429,2,темна,,
2430,2,терзаться,,
2431,2,терние,,
2432,2,терпеть,,
2433,2,терять,,
2434,2,теряться,,
2435,2,тимпан,,
2436,2,тлеть,,
2437,2,тоже,,
2438,2,томительный,,
2439,2,томность,,
2440,2,тонкий,,
2441,2,топтать,,
2442,2,торжественный,,
2443,2,торкват,,
2444,2,торопиться,,
2445,2,тоскливый,,
2446,2,третий,,
2447,2,трогать,,
2448,2,трудно,,
2449,2,тщеславие,,
2450,2,тягость,,
2451,2,убирать,,
2452,2,увенчивать,,
2453,2,увидеться,,
2454,2,угадывать,,
2455,2,угрожать,,
2456,2,удаленный,,
2457,2,удалой,,
2458,2,удерживать,,
2459,2,удивление,,
2460,2,уединять,,
2461,2,ужалить,,
2462,2,ужь,,
2463,2,узница,,
2464,2,узы,,
2465,2,укор,,
2466,2,украшение,,
2467,2,укреплять,,
2468,2,укрывать,,
2469,2,умерший,,
2470,2,умолять,,
2471,2,умчалисить,,
2472,2,унижать,,
2473,2,унывать,,
2474,2,упреждать,,
2475,2,усердие,,
2476,2,услаждение,,
2477,2,усыпать,,
2478,2,утешитель,,
2479,2,утлый,,
2480,2,утомиться,,
2481,2,утопать,,
2482,2,утроба,,
2483,2,ущелие,,
2484,2,флора,,
2485,2,хвалебный,,
2486,2,хитрость,,
2487,2,хитрый,,
2488,2,хладеть,,
2489,2,хлеб,,
2490,2,храмина,,
2491,2,царствовать,,
2492,2,цветник,,
2493,2,цветочек,,
2494,2,целовать,,
2495,2,церковь,,
2496,2,чародей,,
2497,2,часть,,
2498,2,чувствительность,,
2499,2,чувствительный,,
2500,2,чудесный,,
2501,2,щедрота,,
2502,2,эол,,
2503,2,явор,,
2504,2,янтарный,,
2505,2,ярмо,,
2506,1,абелард,,
2507,1,август,,
2508,1,ад,,
2509,1,адонис,,
2510,1,адончалон,,
2511,1,азийский,,
2512,1,аквилон,,
2513,1,алеть,,
2514,1,алмазный,,
2515,1,альпийский,,
2516,1,амалия,,
2517,1,амуров,,
2518,1,ананас,,
2519,1,антон,,
2520,1,аониды,,
2521,1,аонья,,
2522,1,апельсин,,
2523,1,аполлон,,
2524,1,арарат,,
2525,1,аскалон,,
2526,1,атропа,,
2527,1,багрец,,
2528,1,багровый,,
2529,1,базмолвие,,
2530,1,бал,,
2531,1,балтийский,,
2532,1,бархат,,
2533,1,бахус,,
2534,1,бедняжка,,
2535,1,бедственный,,
2536,1,бедство,,
2537,1,безбрачный,,
2538,1,безбрежный,,
2539,1,безвестность,,
2540,1,безвечный,,
2541,1,безвозвратно,,
2542,1,безгласный,,
2543,1,бездушный,,
2544,1,бездыханный,,
2545,1,безжалостно,,
2546,1,беззаботно,,
2547,1,беззаботность,,
2548,1,безмолвну,,
2549,1,безнадеждый,,
2550,1,безнадежно,,
2551,1,безнадежный,,
2552,1,безрадостный,,
2553,1,безрассудный,,
2554,1,безропотный,,
2555,1,безумно,,
2556,1,безутешный,,
2557,1,безызвестный,,
2558,1,бел,,
2559,1,белеть,,
2560,1,беллон,,
2561,1,бережок,,
2562,1,береза,,
2563,1,беречься,,
2564,1,бесконечно,,
2565,1,бесконечный,,
2566,1,бескорыстный,,
2567,1,бесплодно,,
2568,1,бесплотный,,
2569,1,беспокоить,,
2570,1,бесполезный,,
2571,1,бесстрастие,,
2572,1,бесстрашно,,
2573,1,бесстрашный,,
2574,1,бесхитростный,,
2575,1,бесчеловечный,,
2576,1,бесчувственность,,
2577,1,бесчувственный,,
2578,1,биение,,
2579,1,биющий,,
2580,1,биющийся,,
2581,1,благий,,
2582,1,благовеститель,,
2583,1,благовонный,,
2584,1,благоговеть,,
2585,1,благодарение,,
2586,1,благодарный,,
2587,1,благоденствие,,
2588,1,благополучный,,
2589,1,благосклонность,,
2590,1,благословение,,
2591,1,благословить,,
2592,1,благостыня,,
2593,1,благотворитель,,
2594,1,благотворительный,,
2595,1,благоуханный,,
2596,1,благочестивый,,
2597,1,блаженная,,
2598,1,блаженсвуя,,
2599,1,блажить,,
2600,1,бландузский,,
2601,1,блернувшй,,
2602,1,блещущий,,
2603,1,близка,,
2604,1,блистание,,
2605,1,блудить,,
2606,1,блюдо,,
2607,1,богастство,,
2608,1,богач,,
2609,1,бого,,
2610,1,боготоваривать,,
2611,1,бодрственный,,
2612,1,бодрствовать,,
2613,1,бокал,,
2614,1,боль,,
2615,1,борзый,,
2616,1,бородино,,
2617,1,бородинская,,
2618,1,бородинский,,
2619,1,борозда,,
2620,1,боря,,
2621,1,боязливый,,
2622,1,боязнь,,
2623,1,бразды,,
2624,1,брак,,
2625,1,бранна,,
2626,1,брежный,,
2627,1,брез,,
2628,1,брезжет,,
2629,1,брение,,
2630,1,брести,,
2631,1,бронза,,
2632,1,броня,,
2633,1,брызок,,
2634,1,бряцание,,
2635,1,буг,,
2636,1,будни,,
2637,1,будный,,
2638,1,бунтовать,,
2639,1,бурн,,
2640,1,быстролетный,,
2641,1,быстротекущий,,
2642,1,бытописание,,
2643,1,вадим,,
2644,1,важный,,
2645,1,валов,,
2646,1,варвара,,
2647,1,васать,,
2648,1,васильковый,,
2649,1,вашй,,
2650,1,вверженный,,
2651,1,вдаваться,,
2652,1,вдалеке,,
2653,1,вдохновенный,,
2654,1,вежди,,
2655,1,вежды,,
2656,1,веждь,,
2657,1,веление,,
2658,1,великодушный,,
2659,1,великолепный,,
2660,1,вельможа,,
2661,1,велять,,
2662,1,венера,,
2663,1,венчальный,,
2664,1,венчый,,
2665,1,вепрь,,
2666,1,веретено,,
2667,1,вертеться,,
2668,1,вертляный,,
2669,1,вертоград,,
2670,1,верь,,
2671,1,веселость,,
2672,1,ветвие,,
2673,1,ветра,,
2674,1,ветренность,,
2675,1,ветренный,,
2676,1,веченеть,,
2677,1,вечеринка,,
2678,1,вечерный,,
2679,1,вечерок,,
2680,1,вживе,,
2681,1,взаимно,,
2682,1,взаимный,,
2683,1,взбесилася,,
2684,1,взвеваться,,
2685,1,взвилися,,
2686,1,взгрустнуть,,
2687,1,вздор,,
2688,1,вздымать,,
2689,1,вздыматься,,
2690,1,вздыхание,,
2691,1,взлагать,,
2692,1,взлелеянный,,
2693,1,взмахивать,,
2694,1,взметать,,
2695,1,взрывать,,
2696,1,взыграть,,
2697,1,виетесь,,
2698,1,вилы,,
2699,1,вино,,
2700,1,виновник,,
2701,1,виновница,,
2702,1,вития,,
2703,1,вихор,,
2704,1,виющийся,,
2705,1,влажный,,
2706,1,властитель,,
2707,1,властительный,,
2708,1,влетать,,
2709,1,влечение,,
2710,1,влюбленный,,
2711,1,вмиг,,
2712,1,вне,,
2713,1,внезапный,,
2714,1,вниз,,
2715,1,внось,,
2716,1,внутри,,
2717,1,внятный,,
2718,1,вображение,,
2719,1,водомет,,
2720,1,водопад,,
2721,1,водружать,,
2722,1,воды,,
2723,1,возблистать,,
2724,1,возбудимый,,
2725,1,возбуждать,,
2726,1,возбуждаться,,
2727,1,возвести,,
2728,1,возвышаться,,
2729,1,возвышенный,,
2730,1,воздремать,,
2731,1,воздыматься,,
2732,1,возжигать,,
2733,1,воззвание,,
2734,1,воззрение,,
2735,1,возлести,,
2736,1,возлетать,,
2737,1,возлюбленный,,
2738,1,возмит,,
2739,1,возможно,,
2740,1,возноситься,,
2741,1,возобновлять,,
2742,1,возобновляться,,
2743,1,возра,,
2744,1,возрадоваться,,
2745,1,возрождалисить,,
2746,1,возрождать,,
2747,1,возрождаться,,
2748,1,волга,,
2749,1,волнистый,,
2750,1,волнование,,
2751,1,волнуяся,,
2752,1,волос,,
2753,1,волхование,,
2754,1,волховский,,
2755,1,волшебно,,
2756,1,волшебство,,
2757,1,вольный,,
2758,1,вонзать,,
2759,1,вонзаться,,
2760,1,вопиять,,
2761,1,вопреки,,
2762,1,воркование,,
2763,1,ворон,,
2764,1,воротить,,
2765,1,воротиться,,
2766,1,восдвигать,,
2767,1,восклицать,,
2768,1,воскреснуть,,
2769,1,воскресный,,
2770,1,воспаленно,,
2771,1,воспитанник,,
2772,1,воспомнить,,
2773,1,воспомянуть,,
2774,1,воспротивиться,,
2775,1,воспылать,,
2776,1,восседать,,
2777,1,воссылать,,
2778,1,вострепетать,,
2779,1,восхитительно,,
2780,1,восхождение,,
2781,1,восшедший,,
2782,1,восшлем,,
2783,1,впервые,,
2784,1,вписывать,,
2785,1,вполне,,
2786,1,впредь,,
2787,1,вражда,,
2788,1,вран,,
2789,1,врачевание,,
2790,1,вретено,,
2791,1,вряд,,
2792,1,вселять,,
2793,1,вселяться,,
2794,1,всеместный,,
2795,1,всеобщий,,
2796,1,всечасно,,
2797,1,всколебалася,,
2798,1,вскрываться,,
2799,1,вспаривать,,
2800,1,вспламенять,,
2801,1,всплывать,,
2802,1,всплыть,,
2803,1,вспомянуть,,
2804,1,вспохнуть,,
2805,1,вспять,,
2806,1,встрепенулася,,
2807,1,встрестись,,
2808,1,вступать,,
2809,1,всуе,,
2810,1,всходить,,
2811,1,всхолмиться,,
2812,1,вто,,
2813,1,вторично,,
2814,1,второй,,
2815,1,входить,,
2816,1,вчерашний,,
2817,1,вшелы,,
2818,1,выглядывать,,
2819,1,выгода,,
2820,1,выгонять,,
2821,1,выдешь,,
2822,1,выдумывать,,
2823,1,вызывать,,
2824,1,вылать,,
2825,1,вылетать,,
2826,1,вымерять,,
2827,1,вымолвить,,
2828,1,вымолять,,
2829,1,вынимать,,
2830,1,вырывать,,
2831,1,высоко,,
2832,1,выходить,,
2833,1,выщать,,
2834,1,вьюга,,
2835,1,вяз,,
2836,1,вязать,,
2837,1,гальциона,,
2838,1,гарем,,
2839,1,гаситься,,
2840,1,гектор,,
2841,1,германец,,
2842,1,гермиона,,
2843,1,геройск,,
2844,1,геройство,,
2845,1,гета,,
2846,1,гильбой,,
2847,1,гильбоя,,
2848,1,гимен,,
2849,1,главный,,
2850,1,глад,,
2851,1,гладкий,,
2852,1,глодать,,
2853,1,глотать,,
2854,1,глубок,,
2855,1,глыба,,
2856,1,глыбистый,,
2857,1,глядь,,
2858,1,глянуть,,
2859,1,гневать,,
2860,1,гневный,,
2861,1,гнезда,,
2862,1,гнездиться,,
2863,1,голицын,,
2864,1,голод,,
2865,1,голосистый,,
2866,1,голубков,,
2867,1,гонитель,,
2868,1,гоняяся,,
2869,1,горделивый,,
2870,1,гордо,,
2871,1,гордостия,,
2872,1,горевать,,
2873,1,горестия,,
2874,1,горесь,,
2875,1,горечь,,
2876,1,горжуся,,
2877,1,горизонт,,
2878,1,горный,,
2879,1,городской,,
2880,1,горстие,,
2881,1,горсть,,
2882,1,горшок,,
2883,1,горючее,,
2884,1,горючий,,
2885,1,горящий,,
2886,1,господствовать,,
2887,1,гостеприимство,,
2888,1,гоступриимный,,
2889,1,готический,,
2890,1,готовиться,,
2891,1,градский,,
2892,1,гражданин,,
2893,1,гребец,,
2894,1,греза,,
2895,1,грех,,
2896,1,гроздие,,
2897,1,громко,,
2898,1,грот,,
2899,1,грохот,,
2900,1,грудие,,
2901,1,грузный,,
2902,1,гряда,,
2903,1,грядущее,,
2904,1,губитель,,
2905,1,гулко,,
2906,1,густота,,
2907,1,давний,,
2908,1,давность,,
2909,1,давный,,
2910,1,далее,,
2911,1,дальня,,
2912,1,данаида,,
2913,1,данные,,
2914,1,данный,,
2915,1,дарование,,
2916,1,двукратно,,
2917,1,дебелый,,
2918,1,девушка,,
2919,1,действовать,,
2920,1,делимый,,
2921,1,делия,,
2922,1,дема,,
2923,1,деревня,,
2924,1,держава,,
2925,1,дерзостный,,
2926,1,дерзость,,
2927,1,дерзский,,
2928,1,деровать,,
2929,1,десерт,,
2930,1,деяние,,
2931,1,диана,,
2932,1,дивиться,,
2933,1,диво,,
2934,1,диг,,
2935,1,дикость,,
2936,1,длание,,
2937,1,длиться,,
2938,1,длл,,
2939,1,дневесный,,
2940,1,дневной,,
2941,1,днепр,,
2942,1,довершение,,
2943,1,доверять,,
2944,1,доверяться,,
2945,1,довольство,,
2946,1,доель,,
2947,1,дожидать,,
2948,1,дозволять,,
2949,1,доказывать,,
2950,1,доказываться,,
2951,1,долинный,,
2952,1,долу,,
2953,1,домашние,,
2954,1,домовитый,,
2955,1,домовод,,
2956,1,домой,,
2957,1,дон,,
2958,1,доносить,,
2959,1,допрядать,,
2960,1,дорого,,
2961,1,достигнуть,,
2962,1,дость,,
2963,1,досягать,,
2964,1,дочерний,,
2965,1,драгой,,
2966,1,драгоя,,
2967,1,древле,,
2968,1,дремучий,,
2969,1,дробить,,
2970,1,дрогнуть,,
2971,1,дружеский,,
2972,1,дружие,,
2973,1,дружиться,,
2974,1,дружно,,
2975,1,дружок,,
2976,1,дряхлеющием,,
2977,1,дубовый,,
2978,1,дуброва,,
2979,1,дунай,,
2980,1,дурга,,
2981,1,дурь,,
2982,1,дуть,,
2983,1,духанье,,
2984,1,душы,,
2985,1,дущий,,
2986,1,дымковый,,
2987,1,дымчатый,,
2988,1,дыт,,
2989,1,евангелие,,
2990,1,европейский,,
2991,1,егов,,
2992,1,единокровный,,
2993,1,ежели,,
2994,1,екатерина,,
2995,1,елей,,
2996,1,елисавета,,
2997,1,елоиза,,
2998,1,епидар,,
2999,1,ерусалим,,
3000,1,естьли,,
3001,1,жаворонок,,
3002,1,жавронок,,
3003,1,жадность,,
3004,1,жаждать,,
3005,1,жалоба,,
3006,1,жалостный,,
3007,1,жаль,,
3008,1,жара,,
3009,1,железный,,
3010,1,желтеть,,
3011,1,желтый,,
3012,1,жемчуг,,
3013,1,жемчужный,,
3014,1,женщина,,
3015,1,жертвенник,,
3016,1,жертвенный,,
3017,1,жертвовать,,
3018,1,жертвоприношение,,
3019,1,жестокость,,
3020,1,живо,,
3021,1,живописать,,
3022,1,живопись,,
3023,1,животворить,,
3024,1,житейский,,
3025,1,жрец,,
3026,1,жужжать,,
3027,1,журчаща,,
3028,1,журчин,,
3029,1,забверь,,
3030,1,забиваться,,
3031,1,заблестеть,,
3032,1,заблудший,,
3033,1,заблуждать,,
3034,1,заботливо,,
3035,1,забытый,,
3036,1,заведать,,
3037,1,завет,,
3038,1,завещать,,
3039,1,завидеть,,
3040,1,завиистный,,
3041,1,зависеть,,
3042,1,завладевать,,
3043,1,завлекать,,
3044,1,заводить,,
3045,1,завоевание,,
3046,1,завоеватель,,
3047,1,заволакиваться,,
3048,1,заглаживать,,
3049,1,заглохнуть,,
3050,1,заглушать,,
3051,1,загреметь,,
3052,1,задремать,,
3053,1,задрожать,,
3054,1,задумчивость,,
3055,1,зажек,,
3056,1,зажигаться,,
3057,1,зазеленеть,,
3058,1,заиграть,,
3059,1,закаленный,,
3060,1,закатываться,,
3061,1,закачивать,,
3062,1,заклинать,,
3063,1,законодатель,,
3064,1,закручиваться,,
3065,1,закрываться,,
3066,1,залив,,
3067,1,заливаться,,
3068,1,заманивать,,
3069,1,заменяться,,
3070,1,замечать,,
3071,1,замный,,
3072,1,замолвнуть,,
3073,1,заморский,,
3074,1,занести,,
3075,1,занимать,,
3076,1,заниматься,,
3077,1,заныть,,
3078,1,занятый,,
3079,1,западный,,
3080,1,запираться,,
3081,1,запоздалый,,
3082,1,запрещать,,
3083,1,заранее,,
3084,1,зараня,,
3085,1,зарок,,
3086,1,заронять,,
3087,1,зарь,,
3088,1,засверкать,,
3089,1,засвечивать,,
3090,1,заслуживать,,
3091,1,застенчивый,,
3092,1,застилать,,
3093,1,застонать,,
3094,1,заструиться,,
3095,1,заступать,,
3096,1,засыхать,,
3097,1,затворилися,,
3098,1,затворник,,
3099,1,затворять,,
3100,1,затем,,
3101,1,затея,,
3102,1,заточение,,
3103,1,затрепетать,,
3104,1,зашевелилися,,
3105,1,защебетать,,
3106,1,защищаться,,
3107,1,заяц,,
3108,1,звание,,
3109,1,званый,,
3110,1,зваться,,
3111,1,звенеть,,
3112,1,зверь,,
3113,1,звучать,,
3114,1,звучащий,,
3115,1,здание,,
3116,1,зевота,,
3117,1,зеркально,,
3118,1,зерно,,
3119,1,зерцало,,
3120,1,зефирный,,
3121,1,зефировый,,
3122,1,зимный,,
3123,1,златить,,
3124,1,златострелый,,
3125,1,златострунный,,
3126,1,златый,,
3127,1,злобно,,
3128,1,зловещий,,
3129,1,злодейский,,
3130,1,злодейство,,
3131,1,злополучный,,
3132,1,злословие,,
3133,1,злость,,
3134,1,злосчастие,,
3135,1,змей,,
3136,1,змея,,
3137,1,змий,,
3138,1,змия,,
3139,1,знакомая,,
3140,1,знакомить,,
3141,1,знамение,,
3142,1,знаменитый,,
3143,1,знаться,,
3144,1,значит,,
3145,1,значить,,
3146,1,золотить,,
3147,1,зрелость,,
3148,1,зуб,,
3149,1,зубной,,
3150,1,зыбить,,
3151,1,зыбиться,,
3152,1,зыбка,,
3153,1,зяблик,,
3154,1,иволга,,
3155,1,игралище,,
3156,1,игрище,,
3157,1,игрушка,,
3158,1,ижора,,
3159,1,избегать,,
3160,1,извилина,,
3161,1,издавать,,
3162,1,издалека,,
3163,1,изида,,
3164,1,излагать,,
3165,1,излишний,,
3166,1,измена,,
3167,1,изменилось,,
3168,1,измерять,,
3169,1,измученный,,
3170,1,измучивать,,
3171,1,изнанник,,
3172,1,изнемогать,,
3173,1,изображаться,,
3174,1,изобретать,,
3175,1,израиль,,
3176,1,израильтянин,,
3177,1,изрекать,,
3178,1,изречение,,
3179,1,изтление,,
3180,1,изумление,,
3181,1,изумлять,,
3182,1,изъязвлять,,
3183,1,изымать,,
3184,1,изящный,,
3185,1,иксион,,
3186,1,ил,,
3187,1,имята,,
3188,1,инако,,
3189,1,иначе,,
3190,1,иней,,
3191,1,инок,,
3192,1,иноплеменный,,
3193,1,иоанафан,,
3194,1,иов,,
3195,1,исковать,,
3196,1,искренность,,
3197,1,искушать,,
3198,1,исполнение,,
3199,1,исполняться,,
3200,1,испрашивать,,
3201,1,испытание,,
3202,1,испытанный,,
3203,1,испытовать,,
3204,1,иссеченный,,
3205,1,иссохший,,
3206,1,иссыхать,,
3207,1,истаивать,,
3208,1,истелвать,,
3209,1,истомиться,,
3210,1,истомленный,,
3211,1,исторгнуться,,
3212,1,истощаться,,
3213,1,истребительный,,
3214,1,исцеление,,
3215,1,исчезаетт,,
3216,1,исчезнуть,,
3217,1,италия,,
3218,1,ия,,
3219,1,кадило,,
3220,1,каждаться,,
3221,1,казать,,
3222,1,казниться,,
3223,1,калигула,,
3224,1,кальоу,,
3225,1,каменно,,
3226,1,камфора,,
3227,1,камыш,,
3228,1,камышева,,
3229,1,картинный,,
3230,1,касталид,,
3231,1,катитесь,,
3232,1,качаться,,
3233,1,кинжал,,
3234,1,киннамон,,
3235,1,кипр,,
3236,1,киргизка,,
3237,1,кисть,,
3238,1,клавиша,,
3239,1,класть,,
3240,1,клетка,,
3241,1,клика,,
3242,1,клубясти,,
3243,1,клюка,,
3244,1,ключевой,,
3245,1,клялисить,,
3246,1,книжка,,
3247,1,ковы,,
3248,1,ковыль,,
3249,1,коза,,
3250,1,кокетство,,
3251,1,колдун,,
3252,1,коленопреклонение,,
3253,1,колесница,,
3254,1,колесо,,
3255,1,колокольчик,,
3256,1,колчан,,
3257,1,кольпадать,,
3258,1,кольчуга,,
3259,1,комнатный,,
3260,1,конце,,
3261,1,кончаться,,
3262,1,копать,,
3263,1,копье,,
3264,1,корм,,
3265,1,корма,,
3266,1,кормить,,
3267,1,кормчий,,
3268,1,коротать,,
3269,1,короткий,,
3270,1,краска,,
3271,1,краснеть,,
3272,1,красноречиво,,
3273,1,красноречивый,,
3274,1,красоваться,,
3275,1,крез,,
3276,1,крезовый,,
3277,1,крезь,,
3278,1,крепиться,,
3279,1,крепко,,
3280,1,крестник,,
3281,1,кривая,,
3282,1,кривой,,
3283,1,криг,,
3284,1,кролик,,
3285,1,крон,,
3286,1,кротко,,
3287,1,кроткость,,
3288,1,кроясти,,
3289,1,крупный,,
3290,1,крушиться,,
3291,1,крылие,,
3292,1,крыльцо,,
3293,1,крыша,,
3294,1,кудри,,
3295,1,кумыс,,
3296,1,купать,,
3297,1,купель,,
3298,1,купидон,,
3299,1,купить,,
3300,1,купол,,
3301,1,курить,,
3302,1,куриться,,
3303,1,куща,,
3304,1,лавров,,
3305,1,лаг,,
3306,1,лад,,
3307,1,ладон,,
3308,1,лазуревый,,
3309,1,лай,,
3310,1,лакомство,,
3311,1,лань,,
3312,1,ласкаться,,
3313,1,ласковый,,
3314,1,латмос,,
3315,1,латы,,
3316,1,лаура,,
3317,1,легко,,
3318,1,легковерный,,
3319,1,легкость,,
3320,1,лезвие,,
3321,1,лелеить,,
3322,1,лениво,,
3323,1,лепет,,
3324,1,лепетание,,
3325,1,лесистый,,
3326,1,лесной,,
3327,1,летучий,,
3328,1,лешний,,
3329,1,лживый,,
3330,1,ливанский,,
3331,1,ливрея,,
3332,1,лиется,,
3333,1,ликующий,,
3334,1,лилена,,
3335,1,лилея,,
3336,1,лилия,,
3337,1,лилось,,
3338,1,лиля,,
3339,1,линейный,,
3340,1,липов,,
3341,1,лирный,,
3342,1,литургия,,
3343,1,лицемерить,,
3344,1,лицемерный,,
3345,1,лицы,,
3346,1,лицый,,
3347,1,личина,,
3348,1,лишась,,
3349,1,лиющий,,
3350,1,лобызание,,
3351,1,ловец,,
3352,1,ловля,,
3353,1,лодка,,
3354,1,ложиться,,
3355,1,лоза,,
3356,1,локоть,,
3357,1,луга,,
3358,1,лужа,,
3359,1,лужайка,,
3360,1,лужок,,
3361,1,лук,,
3362,1,лукулл,,
3363,1,луш,,
3364,1,лы,,
3365,1,лыжа,,
3366,1,льзя,,
3367,1,любвит,,
3368,1,любиый,,
3369,1,люблио,,
3370,1,любовалисить,,
3371,1,любопытствовать,,
3372,1,любось,,
3373,1,людской,,
3374,1,лютеций,,
3375,1,лютня,,
3376,1,мак,,
3377,1,маленький,,
3378,1,малина,,
3379,1,малый,,
3380,1,маменька,,
3381,1,маня,,
3382,1,марс,,
3383,1,мастика,,
3384,1,мастистый,,
3385,1,мед,,
3386,1,медлительно,,
3387,1,медлить,,
3388,1,медный,,
3389,1,межь,,
3390,1,меньший,,
3391,1,меньшой,,
3392,1,менять,,
3393,1,меркнуть,,
3394,1,мертво,,
3395,1,мертный,,
3396,1,мерцать,,
3397,1,мессал,,
3398,1,мессать,,
3399,1,мета,,
3400,1,метать,,
3401,1,меткий,,
3402,1,мечтательный,,
3403,1,мешать,,
3404,1,мидых,,
3405,1,мила,,
3406,1,миллион,,
3407,1,мило,,
3408,1,милосердый,,
3409,1,мина,,
3410,1,миновать,,
3411,1,миноваться,,
3412,1,минувшых,,
3413,1,мириться,,
3414,1,мирна,,
3415,1,мирок,,
3416,1,миртовый,,
3417,1,мишура,,
3418,1,младенческий,,
3419,1,млат,,
3420,1,мледенец,,
3421,1,мление,,
3422,1,мленхолия,,
3423,1,множество,,
3424,1,могущество,,
3425,1,моейя,,
3426,1,молвить,,
3427,1,молитвенный,,
3428,1,молодые,,
3429,1,молоко,,
3430,1,молюся,,
3431,1,мор,,
3432,1,москва,,
3433,1,мост,,
3434,1,моська,,
3435,1,мотылечко,,
3436,1,мрачинать,,
3437,1,мрачить,,
3438,1,мрачиться,,
3439,1,мрачность,,
3440,1,мррачно,,
3441,1,мстительный,,
3442,1,мстить,,
3443,1,мудрено,,
3444,1,мудрость,,
3445,1,музыка,,
3446,1,мутить,,
3447,1,мутный,,
3448,1,мучительный,,
3449,1,мучиться,,
3450,1,мыть,,
3451,1,мягкий,,
3452,1,набожный,,
3453,1,набрежный,,
3454,1,наверно,,
3455,1,наверное,,
3456,1,нависать,,
3457,1,навстречу,,
3458,1,нагибаться,,
3459,1,нагия,,
3460,1,наглядеться,,
3461,1,нагота,,
3462,1,надводный,,
3463,1,надежно,,
3464,1,наделять,,
3465,1,надеяться,,
3466,1,надоблачный,,
3467,1,надобно,,
3468,1,надолго,,
3469,1,наедине,,
3470,1,наемный,,
3471,1,нажед,,
3472,1,наказывать,,
3473,1,наклон,,
3474,1,наклоненный,,
3475,1,наковальня,,
3476,1,накрывать,,
3477,1,налагать,,
3478,1,напев,,
3479,1,напенить,,
3480,1,наперсница,,
3481,1,наполеон,,
3482,1,наполнять,,
3483,1,наполняться,,
3484,1,напрягать,,
3485,1,напыщенный,,
3486,1,нард,,
3487,1,наречие,,
3488,1,наружно,,
3489,1,наружность,,
3490,1,насильно,,
3491,1,наследственный,,
3492,1,наслеждение,,
3493,1,наслушаться,,
3494,1,наставница,,
3495,1,настрой,,
3496,1,нась,,
3497,1,натура,,
3498,1,нахмуриться,,
3499,1,начертать,,
3500,1,наяда,,
3501,1,небылица,,
3502,1,невежда,,
3503,1,невека,,
3504,1,невечна,,
3505,1,невнимать,,
3506,1,невозможный,,
3507,1,невозмущать,,
3508,1,невозмущенный,,
3509,1,неволно,,
3510,1,невредимый,,
3511,1,невский,,
3512,1,негодование,,
3513,1,негодующий,,
3514,1,недавно,,
3515,1,недальний,,
3516,1,недвижный,,
3517,1,неделимый,,
3518,1,недоверчивый,,
3519,1,недовольный,,
3520,1,недостойный,,
3521,1,недоступный,,
3522,1,недремлющий,,
3523,1,недруг,,
3524,1,нежданный,,
3525,1,нежели,,
3526,1,нежнейша,,
3527,1,незабудка,,
3528,1,незавно,,
3529,1,незаметать,,
3530,1,незваный,,
3531,1,незлобно,,
3532,1,незыблемо,,
3533,1,неизвестно,,
3534,1,неизлечимый,,
3535,1,неизмейный,,
3536,1,неизреченный,,
3537,1,неиспытанный,,
3538,1,некий,,
3539,1,некира,,
3540,1,некого,,
3541,1,некод,,
3542,1,неливать,,
3543,1,нелицемерный,,
3544,1,нельстивый,,
3545,1,нелюдимый,,
3546,1,неметь,,
3547,1,немногий,,
3548,1,немногое,,
3549,1,немолчный,,
3550,1,немощный,,
3551,1,ненастно,,
3552,1,ненасытный,,
3553,1,необозримый,,
3554,1,неопытность,,
3555,1,неотвратимый,,
3556,1,неотертый,,
3557,1,неповторять,,
3558,1,неподвижный,,
3559,1,непокоренный,,
3560,1,неполный,,
3561,1,непонятный,,
3562,1,непорочность,,
3563,1,непорочный,,
3564,1,непостижимость,,
3565,1,неправильно,,
3566,1,неприступный,,
3567,1,неприхотливый,,
3568,1,непробудный,,
3569,1,непросветленный,,
3570,1,непроходимый,,
3571,1,непрочность,,
3572,1,нептун,,
3573,1,нер,,
3574,1,нерадостный,,
3575,1,неразгаданный,,
3576,1,нереида,,
3577,1,нерей,,
3578,1,неслышать,,
3579,1,неспосылать,,
3580,1,несправедливый,,
3581,1,несчастливец,,
3582,1,несытый,,
3583,1,нетерпеливый,,
3584,1,нетерпение,,
3585,1,неугасимый,,
3586,1,неужели,,
3587,1,неужель,,
3588,1,низвергаться,,
3589,1,низко,,
3590,1,низлетать,,
3591,1,низменный,,
3592,1,низшеть,,
3593,1,никакой,,
3594,1,нимало,,
3595,1,нинин,,
3596,1,нисходить,,
3597,1,нисшеть,,
3598,1,ниц,,
3599,1,ничей,,
3600,1,новоселие,,
3601,1,новость,,
3602,1,ноготок,,
3603,1,ночлег,,
3604,1,ныть,,
3605,1,обагрилися,,
3606,1,обветшалый,,
3607,1,обветшать,,
3608,1,обворожий,,
3609,1,обвязывать,,
3610,1,обезображивать,,
3611,1,обещание,,
3612,1,обкладывать,,
3613,1,обладание,,
3614,1,обладать,,
3615,1,облакать,,
3616,1,облегчаться,,
3617,1,облекать,,
3618,1,облекаться,,
3619,1,обливаться,,
3620,1,облокотиться,,
3621,1,обманчиво,,
3622,1,обманываться,,
3623,1,обнажать,,
3624,1,обниматься,,
3625,1,обновление,,
3626,1,ободрять,,
3627,1,обойметь,,
3628,1,обольщаться,,
3629,1,оборвать,,
3630,1,обрастать,,
3631,1,обращенный,,
3632,1,обрекать,,
3633,1,обрушиваться,,
3634,1,обряд,,
3635,1,обступать,,
3636,1,обтекать,,
3637,1,обуревание,,
3638,1,обуревать,,
3639,1,обуять,,
3640,1,обхватить,,
3641,1,обходить,,
3642,1,объяснять,,
3643,1,обыкновенный,,
3644,1,овладевать,,
3645,1,овраг,,
3646,1,овца,,
3647,1,оглянуться,,
3648,1,огонек,,
3649,1,огорчать,,
3650,1,огорчение,,
3651,1,одеяло,,
3652,1,одиночество,,
3653,1,одичалый,,
3654,1,одобрение,,
3655,1,одушевлять,,
3656,1,одушевляться,,
3657,1,оживиться,,
3658,1,оживленный,,
3659,1,озлатиться,,
3660,1,озлащать,,
3661,1,ознакомлять,,
3662,1,означать,,
3663,1,озолотить,,
3664,1,озолотиться,,
3665,1,океанида,,
3666,1,оконница,,
3667,1,окрестности,,
3668,1,окровавленный,,
3669,1,округленный,,
3670,1,окружной,,
3671,1,окрыленный,,
3672,1,окуривать,,
3673,1,оледенелый,,
3674,1,олень,,
3675,1,олимп,,
3676,1,ольховый,,
3677,1,омраченный,,
3678,1,онон,,
3679,1,оный,,
3680,1,опасно,,
3681,1,опасный,,
3682,1,опершися,,
3683,1,описывать,,
3684,1,оплот,,
3685,1,опоминаться,,
3686,1,опочить,,
3687,1,оправдание,,
3688,1,опускаться,,
3689,1,опустение,,
3690,1,опустошенный,,
3691,1,опутывать,,
3692,1,опушать,,
3693,1,опытностия,,
3694,1,опытный,,
3695,1,орковый,,
3696,1,орлиный,,
3697,1,оружие,,
3698,1,освежаться,,
3699,1,освободитель,,
3700,1,освободясь,,
3701,1,осененный,,
3702,1,осениться,,
3703,1,осення,,
3704,1,осеняться,,
3705,1,оскорбление,,
3706,1,ослабевать,,
3707,1,ослаблять,,
3708,1,ослабнуть,,
3709,1,ослепление,,
3710,1,ослеплять,,
3711,1,осока,,
3712,1,оспаривать,,
3713,1,осребриться,,
3714,1,осребрять,,
3715,1,оссиан,,
3716,1,оставшияся,,
3717,1,осталось,,
3718,1,останавливать,,
3719,1,останки,,
3720,1,остида,,
3721,1,осторожный,,
3722,1,островок,,
3723,1,острота,,
3724,1,остылый,,
3725,1,осуждать,,
3726,1,осушать,,
3727,1,осушаться,,
3728,1,отвевать,,
3729,1,отведывать,,
3730,1,отверженный,,
3731,1,отверстый,,
3732,1,отверсть,,
3733,1,отвертый,,
3734,1,отгрянуть,,
3735,1,отделиться,,
3736,1,отделять,,
3737,1,отдергиваться,,
3738,1,отживать,,
3739,1,отзывать,,
3740,1,отказ,,
3741,1,откниь,,
3742,1,отколь,,
3743,1,открываться,,
3744,1,открыто,,
3745,1,отлагать,,
3746,1,отлив,,
3747,1,отливать,,
3748,1,отличный,,
3749,1,отлогий,,
3750,1,отлучать,,
3751,1,отобедать,,
3752,1,отогнать,,
3753,1,отрадно,,
3754,1,отражать,,
3755,1,отринуть,,
3756,1,отрок,,
3757,1,отрывать,,
3758,1,отрыдный,,
3759,1,отслуживать,,
3760,1,отставать,,
3761,1,отступать,,
3762,1,отступник,,
3763,1,отсюда,,
3764,1,отцев,,
3765,1,отчудить,,
3766,1,отчуждать,,
3767,1,отчужденный,,
3768,1,отшельник,,
3769,1,отъять,,
3770,1,отыскивать,,
3771,1,отяготеть,,
3772,1,отяжелеть,,
3773,1,охолодеть,,
3774,1,оценать,,
3775,1,оценивать,,
3776,1,очевидно,,
3777,1,очищение,,
3778,1,очуждать,,
3779,1,ошибаться,,
3780,1,ошибка,,
3781,1,пагуба,,
3782,1,падущий,,
3783,1,пажитьми,,
3784,1,палевый,,
3785,1,палить,,
3786,1,пальмов,,
3787,1,палящий,,
3788,1,паникадило,,
3789,1,панцырь,,
3790,1,папенька,,
3791,1,парень,,
3792,1,парис,,
3793,1,пастбище,,
3794,1,пастушеский,,
3795,1,пафос,,
3796,1,пашня,,
3797,1,паять,,
3798,1,пдружок,,
3799,1,певчий,,
3800,1,пениться,,
3801,1,пенный,,
3802,1,пень,,
3803,1,пепл,,
3804,1,перва,,
3805,1,первоначальный,,
3806,1,перебегать,,
3807,1,перелетать,,
3808,1,перелив,,
3809,1,переливать,,
3810,1,переливаться,,
3811,1,перемениться,,
3812,1,переносить,,
3813,1,переплывать,,
3814,1,перервать,,
3815,1,перерывать,,
3816,1,переселение,,
3817,1,переселять,,
3818,1,пересуды,,
3819,1,переход,,
3820,1,перл,,
3821,1,перловый,,
3822,1,пернаых,,
3823,1,персей,,
3824,1,перси,,
3825,1,персть,,
3826,1,песния,,
3827,1,пестреться,,
3828,1,пестун,,
3829,1,песть,,
3830,1,песчан,,
3831,1,песчаный,,
3832,1,песя,,
3833,1,петрарка,,
3834,1,печалить,,
3835,1,печать,,
3836,1,пирование,,
3837,1,писаться,,
3838,1,питалисить,,
3839,1,питательный,,
3840,1,пламенник,,
3841,1,платок,,
3842,1,плач,,
3843,1,плачеевна,,
3844,1,плевел,,
3845,1,пленир,,
3846,1,пленник,,
3847,1,пленный,,
3848,1,плеск,,
3849,1,плестись,,
3850,1,плет,,
3851,1,плоть,,
3852,1,плуг,,
3853,1,плюшевый,,
3854,1,плющий,,
3855,1,плясать,,
3856,1,победитель,,
3857,1,победный,,
3858,1,побежать,,
3859,1,побоникать,,
3860,1,поборник,,
3861,1,побродить,,
3862,1,повевание,,
3863,1,повевать,,
3864,1,повелеть,,
3865,1,повергаться,,
3866,1,поверенная,,
3867,1,поверживать,,
3868,1,повествование,,
3869,1,повести,,
3870,1,повесть,,
3871,1,повиноваться,,
3872,1,повисать,,
3873,1,повреждать,,
3874,1,повстречать,,
3875,1,повторяться,,
3876,1,погашать,,
3877,1,погладить,,
3878,1,погнать,,
3879,1,погребать,,
3880,1,погребение,,
3881,1,погружаться,,
3882,1,погруженный,,
3883,1,погубить,,
3884,1,подале,,
3885,1,подарить,,
3886,1,подаяние,,
3887,1,подвиг,,
3888,1,подвижный,,
3889,1,подземелье,,
3890,1,подкрадываться,,
3891,1,подлить,,
3892,1,подлунный,,
3893,1,подножие,,
3894,1,подобие,,
3895,1,подождать,,
3896,1,подсекать,,
3897,1,подстерегать,,
3898,1,подумать,,
3899,1,подуть,,
3900,1,пожимание,,
3901,1,позвать,,
3902,1,позгорать,,
3903,1,поздной,,
3904,1,позлащать,,
3905,1,познакомить,,
3906,1,познание,,
3907,1,позябнуть,,
3908,1,пойдуль,,
3909,1,поймать,,
3910,1,покатиться,,
3911,1,покаяние,,
3912,1,поклониться,,
3913,1,покоить,,
3914,1,поколебать,,
3915,1,покорность,,
3916,1,покорствовать,,
3917,1,покровенный,,
3918,1,покровитель,,
3919,1,покрылася,,
3920,1,полвека,,
3921,1,полдень,,
3922,1,полина,,
3923,1,полмертвый,,
3924,1,полнять,,
3925,1,положение,,
3926,1,положенный,,
3927,1,положено,,
3928,1,полубог,,
3929,1,полуденный,,
3930,1,полузавядший,,
3931,1,полузакрытый,,
3932,1,полуразрушенный,,
3933,1,полусумрак,,
3934,1,получать,,
3935,1,полчище,,
3936,1,поль,,
3937,1,померкий,,
3938,1,померкнуть,,
3939,1,помертветь,,
3940,1,помрачаться,,
3941,1,помысел,,
3942,1,помышление,,
3943,1,помышлять,,
3944,1,понемногу,,
3945,1,понесуся,,
3946,1,поносный,,
3947,1,понт,,
3948,1,попалить,,
3949,1,попарно,,
3950,1,пораженный,,
3951,1,порасть,,
3952,1,порождать,,
3953,1,порубить,,
3954,1,поруганный,,
3955,1,поругать,,
3956,1,поручать,,
3957,1,поручаться,,
3958,1,порфироносный,,
3959,1,порывисто,,
3960,1,посадить,,
3961,1,посев,,
3962,1,поседелый,,
3963,1,посекаться,,
3964,1,посетитель,,
3965,1,посетя,,
3966,1,посеять,,
3967,1,послышать,,
3968,1,посметь,,
3969,1,посмотреть,,
3970,1,пособлять,,
3971,1,посол,,
3972,1,посох,,
3973,1,поспешение,,
3974,1,поспешность,,
3975,1,постель,,
3976,1,постоянный,,
3977,1,постоянство,,
3978,1,постушка,,
3979,1,постынуть,,
3980,1,посыпать,,
3981,1,пот,,
3982,1,потаенный,,
3983,1,потайной,,
3984,1,потеря,,
3985,1,потерянный,,
3986,1,потовчут,,
3987,1,потомок,,
3988,1,потоплять,,
3989,1,потревожить,,
3990,1,потрястись,,
3991,1,потухший,,
3992,1,потушиться,,
3993,1,поутру,,
3994,1,поучение,,
3995,1,почивать,,
3996,1,почивший,,
3997,1,почтение,,
3998,1,почувствовать,,
3999,1,пощадить,,
4000,1,поэзия,,
4001,1,появясти,,
4002,1,правление,,
4003,1,прага,,
4004,1,праздненство,,
4005,1,праотец,,
4006,1,преврастность,,
4007,1,превратность,,
4008,1,превращать,,
4009,1,превращаться,,
4010,1,превыспренной,,
4011,1,превышать,,
4012,1,преданный,,
4013,1,предательство,,
4014,1,предвеститься,,
4015,1,предвестница,,
4016,1,предвечный,,
4017,1,предвещание,,
4018,1,предлагать,,
4019,1,предначертание,,
4020,1,предоставлять,,
4021,1,предсказывать,,
4022,1,представляться,,
4023,1,предстоять,,
4024,1,предуготовлять,,
4025,1,предчувствие,,
4026,1,предчувствовать,,
4027,1,прежнему,,
4028,1,презренный,,
4029,1,преклонясь,,
4030,1,преклоняться,,
4031,1,прекрасно,,
4032,1,прелестнуть,,
4033,1,прелетать,,
4034,1,прельстясти,,
4035,1,премудрый,,
4036,1,пренебрегать,,
4037,1,пренебрежение,,
4038,1,преображаться,,
4039,1,преогромный,,
4040,1,преодолевать,,
4041,1,преплывать,,
4042,1,прерывистый,,
4043,1,прерывный,,
4044,1,преступать,,
4045,1,прибегать,,
4046,1,прибежище,,
4047,1,приближать,,
4048,1,приближиваться,,
4049,1,прибредать,,
4050,1,прибрежие,,
4051,1,прибрежный,,
4052,1,приветливость,,
4053,1,привозить,,
4054,1,приволжский,,
4055,1,привольно,,
4056,1,приглашать,,
4057,1,приговаривать,,
4058,1,пригонять,,
4059,1,признательность,,
4060,1,призывание,,
4061,1,призывный,,
4062,1,приказывать,,
4063,1,прикасаться,,
4064,1,приклонясти,,
4065,1,прикосновение,,
4066,1,прикрывать,,
4067,1,прикрываться,,
4068,1,прима,,
4069,1,примерно,,
4070,1,примечесть,,
4071,1,примиритль,,
4072,1,принадлежать,,
4073,1,принесть,,
4074,1,приноситься,,
4075,1,приношение,,
4076,1,принсится,,
4077,1,принуждать,,
4078,1,принятный,,
4079,1,приосенять,,
4080,1,приподымать,,
4081,1,прискорбие,,
4082,1,приспевать,,
4083,1,пристанище,,
4084,1,пристыжать,,
4085,1,присуждать,,
4086,1,присутственный,,
4087,1,присутствовать,,
4088,1,притаиться,,
4089,1,притекать,,
4090,1,прихотливый,,
4091,1,прихоть,,
4092,1,приютиться,,
4093,1,приязнить,,
4094,1,приязнь,,
4095,1,приятность,,
4096,1,пробираясти,,
4097,1,проблестеть,,
4098,1,пробудиться,,
4099,1,пробуждалася,,
4100,1,провождать,,
4101,1,провозглашать,,
4102,1,прогнать,,
4103,1,прогневить,,
4104,1,прогневшяешь,,
4105,1,продавать,,
4106,1,продолжительный,,
4107,1,проезжий,,
4108,1,проживать,,
4109,1,производить,,
4110,1,произвольный,,
4111,1,проих,,
4112,1,пройти,,
4113,1,прокатиться,,
4114,1,проклинать,,
4115,1,пролетный,,
4116,1,проливаться,,
4117,1,проматывать,,
4118,1,промелькнуть,,
4119,1,променивать,,
4120,1,промолвить,,
4121,1,промчалисить,,
4122,1,промысл,,
4123,1,пронзительный,,
4124,1,проницательный,,
4125,1,проповедывать,,
4126,1,пропудить,,
4127,1,пропускать,,
4128,1,прорекать,,
4129,1,прорицатель,,
4130,1,прорицать,,
4131,1,прорицение,,
4132,1,просвещение,,
4133,1,просека,,
4134,1,проселочный,,
4135,1,прослалять,,
4136,1,простилось,,
4137,1,простить,,
4138,1,простодушно,,
4139,1,против,,
4140,1,противустать,,
4141,1,протосковать,,
4142,1,протяжно,,
4143,1,прохлаждать,,
4144,1,прохожй,,
4145,1,процветать,,
4146,1,прочее,,
4147,1,прочитывать,,
4148,1,прочно,,
4149,1,прошед,,
4150,1,прошедший,,
4151,1,прошлое,,
4152,1,прощение,,
4153,1,пруд,,
4154,1,пряслица,,
4155,1,пташка,,
4156,1,пугать,,
4157,1,пудло,,
4158,1,пурпур,,
4159,1,пустини,,
4160,1,пусто,,
4161,1,путеводитель,,
4162,1,путница,,
4163,1,пуховый,,
4164,1,пушистый,,
4165,1,пылко,,
4166,1,пыль,,
4167,1,пыхать,,
4168,1,пята,,
4169,1,пятнадцать,,
4170,1,раба,,
4171,1,рабствовать,,
4172,1,равно,,
4173,1,равнодушно,,
4174,1,рад,,
4175,1,радоваться,,
4176,1,радствовать,,
4177,1,радужный,,
4178,1,разбиваться,,
4179,1,разбрасывать,,
4180,1,разбудить,,
4181,1,развеивать,,
4182,1,разверзаться,,
4183,1,развеселять,,
4184,1,развесистый,,
4185,1,развеянный,,
4186,1,развивалисить,,
4187,1,развиваться,,
4188,1,развитый,,
4189,1,развлекать,,
4190,1,развратный,,
4191,1,развязывать,,
4192,1,разгадывать,,
4193,1,разгневанный,,
4194,1,разгонять,,
4195,1,разгромиться,,
4196,1,раздавалисить,,
4197,1,раздирать,,
4198,1,раздор,,
4199,1,раздробленный,,
4200,1,разжигать,,
4201,1,раззнакомливаться,,
4202,1,разительный,,
4203,1,разливалася,,
4204,1,разливалисить,,
4205,1,разлученный,,
4206,1,разматывать,,
4207,1,размер,,
4208,1,разметаться,,
4209,1,размыление,,
4210,1,разнести,,
4211,1,разнестись,,
4212,1,разноситься,,
4213,1,разный,,
4214,1,разоблачать,,
4215,1,разогревать,,
4216,1,разражаться,,
4217,1,разуверяться,,
4218,1,разцветать,,
4219,1,рало,,
4220,1,раскаиваться,,
4221,1,раскидываться,,
4222,1,раскрашивать,,
4223,1,раскуривать,,
4224,1,распаиваться,,
4225,1,распалять,,
4226,1,распестриться,,
4227,1,распростираться,,
4228,1,распространять,,
4229,1,распускаться,,
4230,1,распухать,,
4231,1,рассветный,,
4232,1,расседший,,
4233,1,рассеиваться,,
4234,1,рассеянный,,
4235,1,рассказ,,
4236,1,рассказывать,,
4237,1,расслал,,
4238,1,расслали,,
4239,1,расставшися,,
4240,1,расстатья,,
4241,1,расстерзанный,,
4242,1,расстилаться,,
4243,1,расстраивать,,
4244,1,рассудительный,,
4245,1,рассыпалос,,
4246,1,растерзанный,,
4247,1,растроганный,,
4248,1,растрогать,,
4249,1,растягивать,,
4250,1,расчет,,
4251,1,ратник,,
4252,1,ратников,,
4253,1,ратный,,
4254,1,рать,,
4255,1,рваться,,
4256,1,рдяный,,
4257,1,ревель,,
4258,1,ревнитель,,
4259,1,ревушиха,,
4260,1,редеть,,
4261,1,резвясти,,
4262,1,рейн,,
4263,1,ретивый,,
4264,1,речка,,
4265,1,решительный,,
4266,1,рещишеть,,
4267,1,реять,,
4268,1,ржавый,,
4269,1,римский,,
4270,1,ринуть,,
4271,1,род,,
4272,1,родительница,,
4273,1,родник,,
4274,1,родный,,
4275,1,родня,,
4276,1,родственный,,
4277,1,родясь,,
4278,1,рожь,,
4279,1,ромашка,,
4280,1,ронять,,
4281,1,ропотный,,
4282,1,росистый,,
4283,1,рубище,,
4284,1,ругаясти,,
4285,1,рузрушитель,,
4286,1,румянец,,
4287,1,румяниться,,
4288,1,ручаться,,
4289,1,рученка,,
4290,1,рушин,,
4291,1,рыбарь,,
4292,1,рыкать,,
4293,1,рыскать,,
4294,1,рядом,,
4295,1,сабля,,
4296,1,садик,,
4297,1,сажать,,
4298,1,салгир,,
4299,1,самдруг,,
4300,1,самолюбивый,,
4301,1,сановитый,,
4302,1,сатира,,
4303,1,сафо,,
4304,1,сберегать,,
4305,1,сберегаться,,
4306,1,сберемся,,
4307,1,сбирать,,
4308,1,сближать,,
4309,1,сбросить,,
4310,1,сбывалисить,,
4311,1,свежесть,,
4312,1,свершенно,,
4313,1,света,,
4314,1,светлеть,,
4315,1,светский,,
4316,1,свеча,,
4317,1,свивать,,
4318,1,свидеться,,
4319,1,свим,,
4320,1,свинцова,,
4321,1,свинцовый,,
4322,1,свиревый,,
4323,1,свирепствовать,,
4324,1,свистеть,,
4325,1,свистящий,,
4326,1,свободитель,,
4327,1,своевольный,,
4328,1,своея,,
4329,1,свойство,,
4330,1,свом,,
4331,1,святилище,,
4332,1,святов,,
4333,1,святозарный,,
4334,1,святость,,
4335,1,священник,,
4336,1,сгарай,,
4337,1,сгораемый,,
4338,1,сдружившияся,,
4339,1,се,,
4340,1,север,,
4341,1,сегодний,,
4342,1,седеть,,
4343,1,седина,,
4344,1,сел,,
4345,1,сельный,,
4346,1,семейственный,,
4347,1,семейство,,
4348,1,семнадцатый,,
4349,1,семя,,
4350,1,сенистый,,
4351,1,сердитый,,
4352,1,серебристый,,
4353,1,серебрить,,
4354,1,серебро,,
4355,1,сереть,,
4356,1,серна,,
4357,1,серый,,
4358,1,серь,,
4359,1,сетив,,
4360,1,сечь,,
4361,1,сеять,,
4362,1,сжимать,,
4363,1,сжиматься,,
4364,1,сибирский,,
4365,1,сидонский,,
4366,1,сизый,,
4367,1,симонид,,
4368,1,сир,,
4369,1,сириус,,
4370,1,сиротсвуедать,,
4371,1,сиротский,,
4372,1,скал,,
4373,1,скатилася,,
4374,1,скатистый,,
4375,1,скашивать,,
4376,1,скликать,,
4377,1,скликаться,,
4378,1,склоненный,,
4379,1,склонясти,,
4380,1,склянка,,
4381,1,скользить,,
4382,1,скончать,,
4383,1,скорб,,
4384,1,скорбеть,,
4385,1,скорыть,,
4386,1,скрасить,,
4387,1,скрежет,,
4388,1,скромность,,
4389,1,скрытный,,
4390,1,скудельность,,
4391,1,скудный,,
4392,1,скупой,,
4393,1,скучать,,
4394,1,слабеть,,
4395,1,слабо,,
4396,1,славянин,,
4397,1,сладкогласный,,
4398,1,сладкое,,
4399,1,сладку,,
4400,1,сладостнуть,,
4401,1,сладострастный,,
4402,1,сладостратиться,,
4403,1,слать,,
4404,1,следостный,,
4405,1,слепец,,
4406,1,слепо,,
4407,1,слепота,,
4408,1,слетаетт,,
4409,1,слива,,
4410,1,сливалисить,,
4411,1,сливалися,,
4412,1,слуга,,
4413,1,слыжа,,
4414,1,слыть,,
4415,1,слышимый,,
4416,1,слышло,,
4417,1,смежный,,
4418,1,сменить,,
4419,1,смеркаться,,
4420,1,смерный,,
4421,1,смертельный,,
4422,1,смертие,,
4423,1,смешаться,,
4424,1,сминать,,
4425,1,сммертный,,
4426,1,смородина,,
4427,1,смотреться,,
4428,1,смрадный,,
4429,1,смтреится,,
4430,1,смтремиться,,
4431,1,смутитель,,
4432,1,смывать,,
4433,1,смыкалисить,,
4434,1,смыкать,,
4435,1,смыкаться,,
4436,1,смягченный,,
4437,1,смятенный,,
4438,1,смятень,,
4439,1,снеговой,,
4440,1,снежный,,
4441,1,снести,,
4442,1,снисхождение,,
4443,1,сносить,,
4444,1,сносный,,
4445,1,собрание,,
4446,1,собственный,,
4447,1,событие,,
4448,1,совершаться,,
4449,1,совершенный,,
4450,1,совет,,
4451,1,совлекать,,
4452,1,совсем,,
4453,1,согласно,,
4454,1,соглашуся,,
4455,1,согражданин,,
4456,1,соделаться,,
4457,1,соединиться,,
4458,1,сожаление,,
4459,1,созвать,,
4460,1,создавать,,
4461,1,создатель,,
4462,1,созерцатель,,
4463,1,созерцать,,
4464,1,созидать,,
4465,1,сок,,
4466,1,сокрушенный,,
4467,1,сокрываться,,
4468,1,сокрылось,,
4469,1,солома,,
4470,1,соломенный,,
4471,1,сонмище,,
4472,1,сообщество,,
4473,1,сооружать,,
4474,1,соотудить,,
4475,1,сопротивный,,
4476,1,сопрягаться,,
4477,1,сопутник,,
4478,1,сопутствовать,,
4479,1,сорент,,
4480,1,сосец,,
4481,1,составить,,
4482,1,составлять,,
4483,1,состраждать,,
4484,1,сосуд,,
4485,1,соха,,
4486,1,сохнуть,,
4487,1,сохранение,,
4488,1,сохранилися,,
4489,1,сохраняться,,
4490,1,сочетание,,
4491,1,сочный,,
4492,1,спадать,,
4493,1,спелый,,
4494,1,сподвижник,,
4495,1,спокоиться,,
4496,1,спокой,,
4497,1,спрашивать,,
4498,1,спутница,,
4499,1,спущуся,,
4500,1,сравнивать,,
4501,1,сравнялася,,
4502,1,срадилися,,
4503,1,сражаться,,
4504,1,срастаться,,
4505,1,сребриться,,
4506,1,сребровидный,,
4507,1,срезать,,
4508,1,сресбрист,,
4509,1,сродный,,
4510,1,сронить,,
4511,1,срониться,,
4512,1,срываться,,
4513,1,ссекать,,
4514,1,сталось,,
4515,1,старик,,
4516,1,старший,,
4517,1,старый,,
4518,1,статный,,
4519,1,стая,,
4520,1,стебль,,
4521,1,стелить,,
4522,1,стенить,,
4523,1,стереть,,
4524,1,стесненный,,
4525,1,стеснилось,,
4526,1,стесняться,,
4527,1,стихлый,,
4528,1,стихнуть,,
4529,1,стлать,,
4530,1,сто,,
4531,1,стоить,,
4532,1,стократно,,
4533,1,столбовой,,
4534,1,столетие,,
4535,1,столичный,,
4536,1,столпиться,,
4537,1,стоп,,
4538,1,сторожевой,,
4539,1,стоящий,,
4540,1,страдалица,,
4541,1,страдающий,,
4542,1,страждать,,
4543,1,страженный,,
4544,1,страиваться,,
4545,1,страиться,,
4546,1,странний,,
4547,1,странница,,
4548,1,стратий,,
4549,1,страшисить,,
4550,1,страшитеся,,
4551,1,страшно,,
4552,1,стреить,,
4553,1,стрелка,,
4554,1,стремилася,,
4555,1,стремить,,
4556,1,стремление,,
4557,1,строптивый,,
4558,1,стружить,,
4559,1,струйка,,
4560,1,студеный,,
4561,1,ступать,,
4562,1,стучать,,
4563,1,стучаться,,
4564,1,стыдливость,,
4565,1,стыть,,
4566,1,стяжание,,
4567,1,судьбин,,
4568,1,суетность,,
4569,1,суетствие,,
4570,1,сужденный,,
4571,1,сун,,
4572,1,супружеский,,
4573,1,суровость,,
4574,1,суть,,
4575,1,сухой,,
4576,1,суша,,
4577,1,существо,,
4578,1,существование,,
4579,1,сущий,,
4580,1,сфера,,
4581,1,сходство,,
4582,1,сходящий,,
4583,1,счесть,,
4584,1,съединиться,,
4585,1,съединяться,,
4586,1,сыскивать,,
4587,1,таинственность,,
4588,1,тайно,,
4589,1,таков,,
4590,1,тамерлан,,
4591,1,тантал,,
4592,1,таять,,
4593,1,твердыня,,
4594,1,творительница,,
4595,1,творить,,
4596,1,театр,,
4597,1,теблежский,,
4598,1,тежякий,,
4599,1,тема,,
4600,1,темир,,
4601,1,темнеться,,
4602,1,теокрит,,
4603,1,теперешний,,
4604,1,терн,,
4605,1,теснить,,
4606,1,течение,,
4607,1,течный,,
4608,1,тешить,,
4609,1,тещтное,,
4610,1,тизифон,,
4611,1,тимур,,
4612,1,тина,,
4613,1,тиранский,,
4614,1,тиртей,,
4615,1,титарт,,
4616,1,титло,,
4617,1,титул,,
4618,1,тифий,,
4619,1,тиховейный,,
4620,1,тихоструйный,,
4621,1,тление,,
4622,1,тленность,,
4623,1,толва,,
4624,1,толки,,
4625,1,томилася,,
4626,1,томно,,
4627,1,томносщь,,
4628,1,тонуть,,
4629,1,тополь,,
4630,1,топот,,
4631,1,торопливый,,
4632,1,тоскующий,,
4633,1,тощий,,
4634,1,травить,,
4635,1,травка,,
4636,1,требовать,,
4637,1,трелистный,,
4638,1,трепещуеть,,
4639,1,тридевять,,
4640,1,трижды,,
4641,1,тритон,,
4642,1,тронуться,,
4643,1,тростник,,
4644,1,трофей,,
4645,1,троя,,
4646,1,трудный,,
4647,1,тружение,,
4648,1,трясти,,
4649,1,туманиться,,
4650,1,туманна,,
4651,1,тумящий,,
4652,1,тунгус,,
4653,1,тупой,,
4654,1,тускнеть,,
4655,1,тучка,,
4656,1,тщательно,,
4657,1,тщета,,
4658,1,тый,,
4659,1,тягостно,,
4660,1,тяжесть,,
4661,1,тяжко,,
4662,1,убегать,,
4663,1,убийственный,,
4664,1,убийство,,
4665,1,убито,,
4666,1,убитый,,
4667,1,убор,,
4668,1,уважать,,
4669,1,увенчанный,,
4670,1,уверение,,
4671,1,уверять,,
4672,1,уверяюся,,
4673,1,увивать,,
4674,1,увиваться,,
4675,1,увиж,,
4676,1,увлажать,,
4677,1,увлеченный,,
4678,1,увядание,,
4679,1,увянещ,,
4680,1,углубляться,,
4681,1,угождать,,
4682,1,угождение,,
4683,1,угроза,,
4684,1,угрюм,,
4685,1,угрюмо,,
4686,1,угрюмость,,
4687,1,удаление,,
4688,1,удача,,
4689,1,удерживаться,,
4690,1,удобренный,,
4691,1,удовольствие,,
4692,1,ужы,,
4693,1,узас,,
4694,1,узда,,
4695,1,узнаваться,,
4696,1,узник,,
4697,1,узря,,
4698,1,уклонясь,,
4699,1,уклоняться,,
4700,1,укорять,,
4701,1,украшенный,,
4702,1,укрепляться,,
4703,1,укромный,,
4704,1,укрюмый,,
4705,1,укусить,,
4706,1,улечься,,
4707,1,улыбалисить,,
4708,1,умеренностия,,
4709,1,умеренность,,
4710,1,умеренный,,
4711,1,умертвлять,,
4712,1,умерять,,
4713,1,умильно,,
4714,1,умный,,
4715,1,умолкнуть,,
4716,1,унетать,,
4717,1,униженный,,
4718,1,унизывать,,
4719,1,уничижение,,
4720,1,уныл,,
4721,1,унылость,,
4722,1,упадать,,
4723,1,упадший,,
4724,1,упорный,,
4725,1,упускать,,
4726,1,урожай,,
4727,1,урочный,,
4728,1,усадьба,,
4729,1,усеянный,,
4730,1,усиливаться,,
4731,1,услада,,
4732,1,усладительный,,
4733,1,услаждаться,,
4734,1,условие,,
4735,1,условленный,,
4736,1,услужливый,,
4737,1,усмирять,,
4738,1,уснувший,,
4739,1,успевать,,
4740,1,успленный,,
4741,1,успокаиваться,,
4742,1,устав,,
4743,1,уставать,,
4744,1,усталость,,
4745,1,устный,,
4746,1,устраивать,,
4747,1,устрашать,,
4748,1,устремиться,,
4749,1,усыновлять,,
4750,1,усыплять,,
4751,1,утверждать,,
4752,1,утекать,,
4753,1,утесистый,,
4754,1,утеснять,,
4755,1,утомившисеться,,
4756,1,утонченный,,
4757,1,утраченый,,
4758,1,уцелеть,,
4759,1,учение,,
4760,1,учуся,,
4761,1,фавна,,
4762,1,факл,,
4763,1,факлов,,
4764,1,фаон,,
4765,1,фарийский,,
4766,1,фарфор,,
4767,1,феакия,,
4768,1,фиал,,
4769,1,фивский,,
4770,1,филит,,
4771,1,филомести,,
4772,1,филон,,
4773,1,фимизм,,
4774,1,флер,,
4775,1,фракия,,
4776,1,фурия,,
4777,1,хан,,
4778,1,хаос,,
4779,1,харит,,
4780,1,харита,,
4781,1,харон,,
4782,1,хата,,
4783,1,хваление,,
4784,1,хищный,,
4785,1,хла,,
4786,1,хлябь,,
4787,1,ход,,
4788,1,ходить,,
4789,1,холодность,,
4790,1,хотеться,,
4791,1,хотябать,,
4792,1,храбрость,,
4793,1,цвеница,,
4794,1,цветтущий,,
4795,1,цвешочик,,
4796,1,цезарь,,
4797,1,целебный,,
4798,1,ценить,,
4799,1,цепенеть,,
4800,1,церерин,,
4801,1,чад,,
4802,1,чай,,
4803,1,частный,,
4804,1,частый,,
4805,1,челн,,
4806,1,человечество,,
4807,1,челон,,
4808,1,чемужить,,
4809,1,червленый,,
4810,1,чернеть,,
4811,1,чернеться,,
4812,1,черных,,
4813,1,чернь,,
4814,1,черпать,,
4815,1,чертить,,
4816,1,четыре,,
4817,1,чин,,
4818,1,число,,
4819,1,чисто,,
4820,1,чли,,
4821,1,чолна,,
4822,1,чтожать,,
4823,1,чувсв,,
4824,1,чугунный,,
4825,1,чудный,,
4826,1,чудо,,
4827,1,чуять,,
4828,1,шалаш,,
4829,1,шам,,
4830,1,шаман,,
4831,1,шампанское,,
4832,1,шатер,,
4833,1,швейцария,,
4834,1,шептаться,,
4835,1,шипеть,,
4836,1,шипящий,,
4837,1,шираса,,
4838,1,широко,,
4839,1,шорка,,
4840,1,штутгард,,
4841,1,шумно,,
4842,1,щастие,,
4843,1,щебетание,,
4844,1,щедро,,
4845,1,щедрый,,
4846,1,щептаться,,
4847,1,эвадень,,
4848,1,эдем,,
4849,1,элегия,,
4850,1,элизий,,
4851,1,энкелад,,
4852,1,эпидавр,,
4853,1,эрот,,
4854,1,эхидна,,
4855,1,юноая,,
4856,1,юностия,,
4857,1,юношеский,,
4858,1,юныгода,,
4859,1,юпитер,,
4860,1,ява,,
4861,1,являлисить,,
4862,1,являяся,,
4863,1,яга,,
4864,1,язва,,
4865,1,янус,,
4866,1,ярко,,
4867,1,яростный,,
4868,1,ясность,,
4869,1,яство,,
