Rank,Freq,Ngram
1,30,я ты
2,24,ты я
3,16,милый ты
4,16,я вы
5,10,мы я
6,10,он я
7,10,они милый
8,8,она я
9,8,счастливый кто
10,8,ты милый
11,8,я он
12,6,милый она
13,6,сам себя
14,6,я она
15,4,вы я
16,4,который я
17,4,милый который
18,4,он милый
19,4,она милый
20,4,она чуждый
21,4,последний он
22,4,себя милый
23,4,ты блаженный
24,4,ты подобно
25,4,ты сам
26,4,ты счастливый
27,4,ты чужой
28,2,бедный ты
29,2,безрадостный она
30,2,бесконечный который
31,2,бессмертный она
32,2,благо он
33,2,благословенный ты
34,2,блаженная который
35,2,блаженный кто
36,2,блаженный ты
37,2,ближний ты
38,2,боязливый себя
39,2,бурный вы
40,2,великий ты
41,2,великодушный ты
42,2,весенний она
43,2,вечерний он
44,2,вы густой
45,2,вы длинный
46,2,вы зной
47,2,вы мидых
48,2,вы милосердый
49,2,вы падший
50,2,вы сам
51,2,вы суровый
52,2,вы туманный
53,2,вы унылый
54,2,высокий он
55,2,гений ты
56,2,гордый ты
57,2,готовый ты
58,2,густой он
59,2,дикий вы
60,2,длинный она
61,2,должный ты
62,2,драгоценный ты
63,2,другой ты
64,2,дубовый она
65,2,жестокий она
66,2,забвенный никто
67,2,заветный она
68,2,завидный ты
69,2,златой они
70,2,злобный мы
71,2,злой ты
72,2,знакомый он
73,2,знаменитый который
74,2,зной ты
75,2,золотой ты
76,2,избранный ты
77,2,который благословенный
78,2,который дикий
79,2,который драгоценный
80,2,который злобный
81,2,который розовый
82,2,кто бурный
83,2,кто мертвый
84,2,кто молодой
85,2,кто ожесточенный
86,2,кто родной
87,2,кто сам
88,2,кто сходный
89,2,кто счастливый
90,2,кто чуждый
91,2,кто я
92,2,легкокрылый он
93,2,лютый ты
94,2,мертвый ты
95,2,мидых мы
96,2,милосердый он
97,2,милый мы
98,2,милый они
99,2,милый это
100,2,младой мы
101,2,молодой она
102,2,мрачный они
103,2,мы весенний
104,2,мы гений
105,2,мы златой
106,2,мы милый
107,2,мы развратный
108,2,мы снеговой
109,2,мы сродный
110,2,мы твой
111,2,небесный ты
112,2,неведомый мы
113,2,неверный ты
114,2,нежный они
115,2,незабвенный вы
116,2,незнаемый ты
117,2,незримый он
118,2,немой он
119,2,ненастный мы
120,2,неразлучный они
121,2,несчастный они
122,2,никто полный
123,2,новый ты
124,2,ожесточенный мы
125,2,ожесточенный ты
126,2,он высокий
127,2,он готовый
128,2,он должный
129,2,он забвенный
130,2,он неверный
131,2,он нежный
132,2,он незримый
133,2,он неразлучный
134,2,он несчастный
135,2,он последний
136,2,он радостный
137,2,он смиренный
138,2,он счастливый
139,2,она бесконечный
140,2,она блаженная
141,2,она вечерний
142,2,она другой
143,2,она дубовый
144,2,она заветный
145,2,она золотой
146,2,она легкокрылый
147,2,она младой
148,2,она новый
149,2,она ожесточенный
150,2,она палевый
151,2,она последний
152,2,она предвечный
153,2,она противный
154,2,она счастливый
155,2,она эрминий
156,2,они мрачный
157,2,они незабвенный
158,2,они усталый
159,2,они я
160,2,падший мы
161,2,палевый он
162,2,подобно кто
163,2,подобно она
164,2,полный который
165,2,полный ты
166,2,полузавядший ты
167,2,поруганный ты
168,2,послушный они
169,2,предвечный она
170,2,прекрасный кто
171,2,прелестный ты
172,2,противный она
173,2,радостный ты
174,2,развратный кто
175,2,ранний она
176,2,родной себя
177,2,розовый она
178,2,роковой она
179,2,сам она
180,2,священный ты
181,2,себя гордый
182,2,себя послушный
183,2,себя счастливый
184,2,сладкий она
185,2,слезный ты
186,2,смертный он
187,2,смиренный мы
188,2,снеговой он
189,2,сродный они
190,2,суетный ты
191,2,суровый он
192,2,сходный ты
193,2,счастливый мы
194,2,счастливый она
195,2,твой ты
196,2,туманный они
197,2,ты бедный
198,2,ты безрадостный
199,2,ты благо
200,2,ты ближний
201,2,ты боязливый
202,2,ты великий
203,2,ты великодушный
204,2,ты жестокий
205,2,ты завидный
206,2,ты злой
207,2,ты знакомый
208,2,ты знаменитый
209,2,ты избранный
210,2,ты лютый
211,2,ты небесный
212,2,ты неведомый
213,2,ты незнаемый
214,2,ты немой
215,2,ты ненастный
216,2,ты полный
217,2,ты полузавядший
218,2,ты поруганный
219,2,ты прекрасный
220,2,ты прелестный
221,2,ты ранний
222,2,ты роковой
223,2,ты священный
224,2,ты слезный
225,2,ты смертный
226,2,ты суетный
227,2,унылый она
228,2,усталый мы
229,2,чуждый вы
230,2,чуждый кто
231,2,чуждый мы
232,2,чужой мы
233,2,чужой он
234,2,эрминий она
235,2,это бессмертный
236,2,я который
237,2,я кто
238,1,ты сладкий
