,POS,pos_tag,value,Class,notes,percentage
1,Noun,NOUN,20966,open,,28.8382712993
2,Verb,VERB,12906,open,,17.7519187918
3,Adjective,ADJ,11924,open,,16.4011994168
4,Adposition,ADP,8236,closed,,11.3284366317
5,Coordinating conjunction,CCONJ,3740,closed,сочинительный,5.14428764
6,Adverb,ADV,3402,open,,4.6793760832
7,Pronoun,PRON,3286,closed,,4.5198206377
8,Determiner,DET,2658,closed,,3.6560204671
9,Proper noun,PROPN,2392,open,,3.2901433248
10,Particle,PART,1930,closed,,2.6546724987
11,Auxiliary,AUX,546,closed,,0.7510109763
12,Subordinating conjunction,SCONJ,412,closed,подчинительный,0.5666969272
13,Numeral,NUM,304,closed,,0.4181453055
