,numb,Signature,Author,Title,First.line,Year,Publication,Meter,Genre.subtitle,geogr,notes,text,n_lines
3,3,Т. -,,Елегия,Ах сбудутсяль когда надежды юных лет,1819,ВЕ. 1819. Ч. 106. № 16. С. 251-254,Я6ммжж,,,,ок,48
4,4,С. де Шаплет,,Элегия,Промчались дни мои счастливы,1819,Соревнователь. 1819. № 7. С. 87-88,Яв,,Динабург,,ok,73
5,5,П.П.,,Сельское утро,Осыпан пурпуром восточный неба край,1819,СО. 1819. № 4. С. 176-178,Я65мж,Элегия,,,ок,18
6,6,П.П.,,Судьба Андромахи,Ты фурию Парис супругою избрал,1819,СО. 1819. № 15. С. 130-131,Я65мж,Элегия,Из Эврипида,"большое примечание о том, что это настоящая элегия из Еврипида",ок,56
7,7,Петр Плетнев,,Гробница Державина,Молчит угрюмый бор одетый ночи мглой,1819,СО. 1819. № 25. С. 273-275,Я65мж,Элегия,эпиграф из Жуковского: В сем прахе не умолкнет пенье (…) В сердцах грядущих поколений!,,ок,12
8,8,П. Теряев,,Кладбище,Бьет полночь мертвая посвюду тишина,1820,Соревнователь. 1820. №12. С. 318-321,Я6,Элегия,,,ок,100
9,9,В. Кюхельбекер,,Элегия,Ясныя грезы от нас о безсмертные жители неба,1820,Соревнователь. 1820. №11.С. 209,Эд,,,,ок,24
12,12,Плетнев,,К моей родине,Забуду ль в песнях я тебя родимый край,1820,СО. 1820. № 3. С. 129-132,Я65мж,Элегия,эпиграф из Катулла,,ok,79
13,13,Ал. Н. р. Въ.,,Прорицание,Затихла в роще Филомела,1820,ВЕ. 1820. № 13. С. 3-5,Я4,Елегия (Подражание),,Мильвуа_Падение листьев,ok,53
14,14,А. Сырох-въ,,Елегии жителя берегов Чернаго моря,Лишь сумраком оденутся поля,1820,ВЕ. 1820. № 20. С. 264-265,Я5,Посвящена И.М. Сумусю,,,ок,8
15,15,А. Сырох-въ,,К морю,Понесите волны бурныя,1820,ВЕ. 1820. № 20. С. 265-266,,Елегии жителя берегов Чернаго моря (2-я),,,ок,9
16,16,Вас. Никоновъ,,Елегия,Забыл меня Едвин жестокой,1820,ВЕ. 1820. № 21. С. 26-27,Я4,,,fem_voice,ок,55
17,17,М. Дмитриев,,Воспоминания,Я видел вас опять родительски поля,1821,НЗ. 1821. Ч. 6. Июнь. С. 243-241,Я4мж,Элегия,"Москва, 27 Генваря, 1818",,ok,16
18,18,А. Б-фъ,,Разлука,Розалия мой спутник неизменный,1821,НЗ. 1821. Ч. 6. Июнь. С. 242-243,,Элегия,,,ок,14
19,19,Баратынский,,Разуверение,Не искушай меня без нужды,1821,НЛ. 1822. № 3. С. 47,Я4,Элегия,,,ok,24
20,20,Князь Шаликов,,Элегия на кончину Князя Д.Д. Цицианова,Сближенный времени всемощною рукой,1822,НЛ. 1822. № 6. С. 93-94,Яв,,,,ok,37
21,21,В.Р.,,Элегия,Почто несется скорби стон,1822,НЛ. 1822. № 26. С. 206-207,Я43мж,,,,ok,16
22,22,Пушкин А.С.,,Элегия,Увы зачем она блистает,1823,НЛ. 1823. № 1. С. 13-14,Я4,,,,ok,16
23,23,И. Козлов,,Сельская сиротка,Разсталась я с тяжелым сном,1823,НЛ. 1823. № 8. С. 126-128,,Элегия,Подражание Г. Суме,,ok,30
24,24,Баратынский,,Падение листьев,Поблекнули ковры полей,1823,НЛ. 1823. № 12. С. 186-187,Я4,,,,ok,17
25,25,К.,,Вечерняя прогулка,Бывало в юности моей,1823,НЛ. 1823. № 23. С. 159-160,Яв,Элегия,"31-го Майя, 1823",,ok,31
26,26,,,Элегия,Не долго радость окрыляет,1823,НЛ. 1823. № 43. С. 62,Я4,,"С. П. Б., Апрель, 1823",,ok,35
27,27,-ов,,Часовня,Нахмуряь облака как мрачная завеса,1823,НЛ. 1823. № 44. С. 76-78,Я66666664,Элегия,,,ok,104
28,28,Пушкин А.С.,,Элегия,Я пережил свои желанья,1823,НЛ. 1823. № 48. С. 144,Я4,,,,ok,28
32,32,Пушкин В.,,,В пустыню дикую сокроюсь я несчастный,1820,НЗ. 1820. Ч. 1. Март. С. 55-56,Я6,,"под общ. загл ""Элегии""",,ок,14
61,63,Д. Глебов,,Разрушенный лес,О сонмы Нимф струите токи слез,1823,ДЖ. 1823. № 3. С. 111-112,Я5,Элегия,,,ок,139
62,64,,,Элегия при взгляде на весеннюю погоду,Под блеском тишиной лазоревого свода,1823,ДЖ. 1823. № 5. С. 194-195,,,,,ок,52
63,65,Дм. Шелехов,,Элегия,Еще ль завидуешь отраде злобный рок,1823,ДЖ. 1823. № 7. С. 17-22,,,1816 года,,ок,81
64,66,Д. Шелехов,,Элегия,Свершилось не мечта о сердца торжество,1823,ДЖ. 1823. № 8. С. 56-58,,,,,ok,26
65,67,Дм. Шелехов,,Элегия. Певец после кончины Лиды,О старец укажи мне верный путь к местам,1823,ДЖ. 1823. № 9. С. 88-91,,,,,ок,28
67,69,Кобозев,,К луне,Лучи златые дня угасли на полях,1825,ДЖ. 1825. № 7. С. 23-24,Я6663,Элегия,Одесса. Берег моря. 23 окт 1824,,ок,31
68,70,Бистром,,Элегия,Оставь меня судьбе моей,1825,ДЖ. 1825. № 18. С. 226,Я4,,,,ок,12
69,71,Б-ов,,Элегия,Как скоро улетела ты,1825,ДЖ. 1825. № 20. С. 63-64,Я4,,,,ok,23
71,74,Волков,,Осень,Приветствую я вас последня сень древес,1824,ДЖ. 1824. № 17. С. 162-163,,Из Ламартина,,,ok,39
72,75,Д. Давыдов,,Элегия,Примите меч я не достоин брани,1821,Рецензент. 1821. № 2. С. 8,,,,,ok,12
73,77,Д. Давыдов,,Элегия,В ужасах войны кровавой,1821,Рецензент. 1821. № 20. С. 80,,,,,ok,64
74,80,С-н. П-о.,,Явление усопших,Покрытый рощицы приветливою сенью,1824,ВЕ. 1824. № 16. С. 279-281,,романтико-треническая елегия,С. П. Бург. 1824,,ok,34
76,83,В. Туманский,,Элегия,Как звонкое журчание Салгира,1824,ЛЛ. 1824. № 6. С. 232,,,,,ок,9
78,85,,,Отъезд,Обитель мирная любви и наслаждений,1824,Благонамеренный. 1824. Ч. 25. № 4. С. 292-294,,Элегия,1823 Декабрь,,ok,20
98,105,*,,Элегия,Время быстро пролетает,1826,"Сириус. СПб., 1826. С. 128-130",,,,,ok,99
109,117,И. Великопольский,,Нереида,О музы оставьте шумящие воды Пермесса,1827,"Календарь муз на 1827 год. Спб., 1827. С. 74-78",,Элегия,Из сочинений Мильвуа,,ok,17
111,119,Н. Языков,,Элегия,Меня любовь преобразила,1826,"Календарь муз на 1826 год. Спб., 1826. С. 124-125",,,,,ok,39
112,120,Н. Сушков,,Звездочка,Сокрылося бледное дней кратких светило,1826,"Календарь муз на 1826 год. Спб., 1826. С. 128-130",,Элегия (в огл.),,,ok,20
113,121,Мих. Дмитриев,,Елегия,Не огорчай меня сомненьем,1826,"Урания. М., 1826. С. 68",,,,,ok,24
129,138,Ободовский,,Кипарис,О кипарис сколь ты отраден в летний зной,1826,НЛ. 1826. Кн. 16. № 1. С. 47-48,,Восточная элегия,,,ok,65
130,139,Глебов Дм.,,"Элегическая песнь. На кончину ГОСУДАРЯ ИМПЕРАТОРА АЛЕКСАНДРА ПАВЛОВИЧА, САМОДЕРЖЦА ВСЕРОССИЙСКОГО",Еще не умолкал веселья шумный клик,1826,НЛ. 1826. Кн. 16. № 2. С. 91-93,,,Эпиг: Сконцался Царь наш! Царь наш жив!,,ok,24
131,140,Языков Н.,,Элегия,Моя камена ей певала,1826,НЛ. 1826. Кн. 16. № 2. С. 93,Я4жмжм,,"Москва, 21 декабря 1825",повтор соревн 1825,ok,12
132,141,Языков Н.,,Элегия,Свободен я уже не трачу,1826,НЛ. 1826. Кн. 16. № 2. С. 94,,,,повтор соревн 1825,ok,37
133,142,Бороздна И.,,Оставленное жилище,Увы ея уж нет со мною,1826,НЛ. 1826. Кн. 16. № 3. С. 147-149,,Элегия (Вольный перевод из Мильвуа),"Москва, 1822 года, Января 1-го дня",,ok,48
134,143,Яковлев М-л,,Элегия (Незабвенной),Давноль природы красота,1826,НЛ. 1826. Кн. 16. № 3. С. 149,,,1825 года,,ok,50
135,144,Языков Н.,,Элегия,Я знал живое заблужденье,1826,НЛ. 1826. Кн. 16. № 3. С. 150,,,,повтор соревн 1825,ок,38
137,147,Е. З-ий,,Элегия,Не обольщай меня напрасно,1825,НЛ. 1825. Кн. 12. № 5. С. 143-144,,,1822,подр. Б.,ok,64
138,148,Е. З-ий (Загорский?),,Элегия,В бездействии души и в праздности досуга,1825,НЛ. 1825. Кн. 12. № 6. С. 188-189,,,1824 / с берегов Буга,,ok,8
139,149,Ободовский Пл.,,Сельская элегия,Два ясеня дружно сплетяся ветвями,1825,НЛ. 1825. Кн. 13. № 7. С. 54,,,,,ок,54
140,150,Загорский,,Элегия. Воспоминание,Где ваша красота,1825,НЛ. 1825. Кн. 13. № 9. С. 185,Я3,,,,ок,52
141,151,Языков Н.,,Элегия,Счастлив кто с юношеских дней,1825,НЛ. 1825. Кн. 14. № 10. С. 75,,,"Сие стихотворение было прислано для напечатания в Н.Л. гораздо прежде, нежели в Соревнователя; но по обстоятельства является в свет позднее. В.",повтор соревн 1825,ок,49
164,201,Батюшков,Батюшков К.Н.,Елегия из Тибулла,Мессала! Без меня ты мчишься по волнам,1816,Вестник Европы. 1816. № 12. С. 255-261.,,Вольный перевод,,,ok,54
172,214, -нъ,,Возвращение на родину,Я возвращуся к вам родимые дубравы,1824,"Майский листок. СПб., 1824. С. 1-5.",,Элегия,,,ok,68
173,215,2.17,,Раскаяние,Я не Поэт возьмите лиру,1824,"Майский листок. СПб., 1824. С. 11-12.",,Элегия,,,ok,44
174,216,В. Чюриковъ,,Элегия,Все мрачно чуждо все для сердца моего,1815,"Каллиопа. Труды воспитанников университетского благодродного пансиона. М., 1815. С. 160-161.",,,,,ok,80
175,217,Д. Д-въ,,Угрозы,О ты смущенная присутствием моим,1829,"Северная звезда. СПб., 1829. С. 29-30.",,Элегия,,,ok,54
176,218,Ап.,Вяземский П.А.,Элегия,О ты которая из детства,1829,"Северная звезда. СПб., 1829. С. 65.",,,,,ok,33
177,219,Карлгоф,,Киргизская элегия,Как здесь вился широкий пал,1829,"Северная звезда. СПб., 1829. С. 127-128.",,,,,ok,140
178,220,* *,,Предчувствие,Не ободряй меня друг нежный,1829,"Северная звезда. СПб., 1829. С. 129.",,Элегия,,,ok,26
179,221,П.Дp-въ,,Сиротки,Зима свирепствует дни ясные прошли,1829,"Северная звезда. СПб., 1829. С. 237-240.",,Элегия,,,ok,14
180,222,Д. Д-въ,Давыдов Д.В.,Утро,Все тихо и заря багряною стопой,1829,"Северная звезда. СПб., 1829. С. 293-294.",,Элегия,,,ok,48
181,224,Д. Штейнберг,,Элегия,Не утешай меня,1829,"Зимцерла. М., 1829. С. 58.",,,,,ok,48
182,226,В. Григорьев,,Элегия,Мечты златыя снов бывалых,1829,"Цефей. М., 1829. С. 185-186.",,,,,ok,78
183,227,Дмирий Попов,,Элегия,Спустился на поля прохладный тихий вечер,1825,"Калужские вечера. М., 1825. Ч. 1. С. 172-175.",,К Барону Фон-Гаубицу. С немецкого,,,ok,44
184,228,Н. Языков,,Элегия,Мечты любви мечты пустые,1829,"Подснежник. Спб., 1829. С. 240-241.",,,,,ok,46
185,229,М.В.,,Элегия на смерть бешеной собаки,О люди добрые моей,1830,"Подснежник. СПб., 1830. С. 57-59.",,Из Гольдсмита,,,ok,62
186,230,В. Гаркуша,,Турецкая элегия,Я арфу дал тебе царицу песней славы,1830,"Подснежник. СПб., 1830. С. 93-94.",,Подражание Байрону,,,ok,94
187,232,Иван Козлов,,Элегия,Вчера в лесу я грустью увлечен,1831,"Сиротка. М., 1831. С. 112-116.",,Вольное подражание Св. Григорию Назианзину. Посвящено Его Сиятельству Князю Александру Николаевичу Голицыну,,,ok,21
188,234,Бестужев-Рюмин,,Безнадежность,Не пробуждай во мне мечтаний,1826,"Сириус. СПб., 1826. С. 74-75.",,Элегия,,ПОВТОР,ok,29
189,236, 1.7. -,,Элегия,Моя промотанная младость,1830,"Комета. М., 1830. С. 69.",,,,,ok,41
190,237, -н-,,Элегия,Где дни счастливых обольщений,1830,"Комета. М., 1830. С. 110-112.",,,,,ok,47
192,239,Н. Савостьянов,,Элегия,Иной среди забав в восторгах упоенья,1824,Украинский журнал. 1824. № 11. С. 241-242.,,,"Льгов, 1820",,ok,60
193,240,Николай Градовский,,Сетование Овидия,Не берегу Днестра певец унылой,1825,Украинский журнал. 1825. № 1. С. 40-41.,,Элегия,,,ok,69
194,241,Р. Д.,,Одиночество,Здесь часто на горе с вечернею звездою,1825,Украинский журнал. 1825. № 10. С. 218-220.,,Из Ламартина,Чугуев,,ok,42
195,242,Ю.,,Елегия,Как ненавистный звук цепей,1825,Украинский журнал. 1825. №. 15. С. 170.,,,Чугуев,,ok,16
196,243,Ф. Морачевский,,Вечер,Когда светило дня последний путь свершает,1825,Украинский журнал. 1825. № 23-24. С. 361-363.,,Элегия,,,ok,32
197,245,Гр. Хвостов,,Элегия Императрице Матери на кончину Королевы Виртембергской,Ты плачешь и тебе состраждет вся россия,1821,"Карманная библиотека Аонид. СПб., 1821. С. 63-66.",,,,,ok,59
199,247,Туманский,,Падение листьев,С дерев на поздний злак полей,1826,"СНРС. Ч. 2. СПб., 1826. С. 118-120.",,,,,ok,21
200,248,Ив. Бороздна,,Одиночество,Как частно на горе под дубом наклоненным,1826,"СНРС. Ч. 2. СПб., 1826. С. 132-134.",,Элегия (Из Ламартина),,,ok,18
201,249,И. Бакунин,,Элегия,Уже вечернею росой,1826,"СНРС. Ч. 2. СПб., 1826. С. 286-288.",,,,,ok,74
202,250,В. Туманский,,Монастырь,В туманно влаге вод потух луч золотой,1818,Благонамеренный. 1818. № 5. С. 135-139.,,Элегия,,,ok,33
203,251,В. Туманский,,Слабость,Все кончено я разорвал,1818,Благонамеренный. 1818. № 5. С. 145-147.,,Элегия (указ. в огл тома),,,ok,56
204,252,В. Туманский,,К друзьям детства,Уж гений младости моей,1818,Благонамеренный. 1818. № 6. С. 281-282,,Элегия (указ. в огл тома),,,ok,34
205,253,Ф. Рындовский,Рындовский Федор Михайлович,К Полине,Ты хочешь знать мой друг как дни мои текут,1818,Благонамеренный. 1818. № 7. С. 3-9.,,Элегия,Писано в Таганроге в 1811 году,"https://ru.wikisource.org/wiki/%D0%A0%D0%91%D0%A1/%D0%92%D0%A2/%D0%A0%D1%8B%D0%BD%D0%B4%D0%BE%D0%B2%D1%81%D0%BA%D0%B8%D0%B9,_%D0%A4%D0%B5%D0%B4%D0%BE%D1%80_%D0%9C%D0%B8%D1%85%D0%B0%D0%B9%D0%BB%D0%BE%D0%B2%D0%B8%D1%87",ok,130
206,254,Z.,,К друзьям,Давно ли о други мы вместе сидели,1818,Благонамеренный. 1818. № 7. С. 13-14,,Элегия,Москва,,ok,88
207,255,В. Туманский,,Элегия,Любовь есть жизни сладострастье,1819,Благонамеренный. 1819. № 10. С. 214-215.,,,эпиграф: Tous les chagrins sont pour les coeurs fideles; / Tous les plaisirs sont pour les inconstans. Parny,,ok,19
208,256,Милонов,М. Милонов,Падение листьев,Рассыпан осени рукою,1819,Благонамеренный. 1819. Ч. 7. № 14. С. 104-107.,,,,"Рус. текст в примечаниях, в Благонам. публикуется немецкий перевод с объявлением о переводе стих. Милонова на нем.",ok,89
209,257,Плетнев,,Герой,Простите радости приманчивой любви,1819,Благонамеренный. 1819. Ч. 8. № 23-24. С. 274-276.,,Элегия,,,ok,36
210,258,Ф... Рындовский,,Вечерняя прогулка,О друг мой милый друг природа нас зовет,1819,Благонамеренный. 1819. Ч. 8. № 22. С. 193-197.,,Элегия (указ. в огл. тома),Село Никольское,,ok,24
211,259,А-ръ Н***въ,Норов,Лира принесенная в жертву,Аминту гордую ты лира прогневляешь,1819,Благонамеренный. 1819. Ч. 8. № 22. С. 197-199.,,Элегия (указ. в огл. тома),"Москва, 15 мая 1819",Из Мильвуа,ok,29
212,260,Ал. Дуроп,,Торквато Тасс в изгнании,Соренто как люблю под сению дубравы,1819,Благонамеренный. 1819. Ч. 8. № 22. С. 201-204.,,Элегия (указ. в огл. тома),,,ok,59
213,261,П. Теряев,,Элегия на кончину Д... И... К...,Ужель К судьба еще не утомила,1820,Благонамеренный. 1820. Ч. 9. № 5. С. 321-325.,,,,см. примеч. посвящается семейству Кало,ok,100
214,262,Н. Анненков,,Элегия,Куда сокрылися дни юности златой,1820,Благонамеренный. 1820. Ч. 10. № 7. С. 54-55.,,Подражание французскому,,,ok,47
216,264,Н. Рейнсдорф,,Странник,Друзья когда опять я с вами,1820,Благонамеренный. 1820. Ч. 10. № 8. С. 123-124.,,Элегии,,общий заголовок с № 263,ok,28
217,265,Н. Дубровин,,Призывание,Приди о нежный друг в мое уединенье,1820,Благонамеренный. 1820. Ч. 10. № 10. С. 286-288.,,Элегия (указ. в огл. тома),Колпино,есть сноски о Царском селе и Колонистах Ижорских,ok,40
218,266,Ал. Норов,,Остров,О милый друг оставим здешний край,1820,Благонамеренный. 1820. Ч. 10. № 10. С. 288-290.,,Элегия (указ. в огл. тома),Надеждино,,ok,14
219,267,Валериян Никонов,,Пробуждение,Заря бледнея потухает,1820,Благонамеренный. 1820. Ч. 10. № 11. С. 370-372.,,Элегия (указ. в огл. тома),,повтор из ВЕ.№8 с испр. автора (см. примеч.),ok,67
220,268,Вильгельм Тило,,Эвадна,Подруги милые я с вами счастья время,1820,Благонамеренный. 1820. Ч. 10. № 12. С. 420-424.,,Элегия (указ. в огл. тома),Оренбург,"эпиграф из Овидия, посвящение АФ Воейкову",ok,84
221,269,К. Рылеев,,К Делии,Почто о Делия с коленопреклоненьем,1820,Благонамеренный. 1820. Ч. 11. № 13. С. 50-52.,,Элегия (указ. в огл. тома),Острогожск,Подражание Тибуллу,ok,72
222,270,П-нъ,,Отчаяние любви,Над шумным потоком,1820,Благонамеренный. 1820. Ч. 11. № 13. С. 52-53.,,Элегия (указ. в огл. тома),Москва,,ok,53
223,271,И. Великопольский,,Срубленная роща,О нимфы плачьте рощи нет,1820,Благонамеренный. 1820. Ч. 11. № 14. С. 111-113.,,Элегия,,Подражание Мильвуа,ok,28
224,272,*...а*...,,К птичке,О птичка милая не ведая заботы,1820,Благонамеренный. 1820. Ч. 11. № 14. С. 113-114.,,Элегия (указ. в огл. тома),,С посвящением (фейковым),ok,64
225,273,Князь Цертелев,,Призвание,Приди о Делия условный час настал,1820,Благонамеренный. 1820. Ч. 11. № 15. С. 187.,,Элегия (указ. в огл. тома),,,ok,47
226,274,Д. Глебов,,Монастырь,Бьет полночь сладким сном почило все творенье,1820,Благонамеренный. 1820. Ч. 12. № 19. С. 46-49.,,Элегия,Москва,,ok,19
227,275,...й,,К Делии,Ты знаешь ли вину ужасного мученья,1820,Благонамеренный. 1820. Ч. 12. № 23-24. С. 327-328.,,Элегия (указ. в огл. тома),,Подражание Мильвуа,ok,29
228,276,А-р Н-в,Норов,Моя кончина,Поверенная чувств и тайных впечатлений,1821,Благонамеренный. 1821. Ч. 13. № 2. С. 79-82.,,Элегия,,Подражание Парни,ok,48
229,277,А-м Норов,Норов,Больной Элизе,Младые грации амуры лейте слезы,1821,Благонамеренный. 1821. Ч. 13. № 2. С. 82-83.,,Элегия (указ. в огл. тома),,С итальянского (из Paolo Rolli),ok,19
231,279,Ф. Бальдауф,,Элегия,Восток румянится зарею,1821,Благонамеренный. 1821. Ч. 13. № 3. С. 130-134.,,,,,ok,24
232,280,Вильгельм Тило,,На смерть соловья,Певец бездыханный напрасно унылый,1821,Благонамеренный. 1821. Ч. 13. № 6. С. 312.,,Элегия (указ. в огл. тома),,,ok,54
233,281,Вильгельм Тило,,К весне,Опять опять ты к нам с безоблачных небес,1821,Благонамеренный. 1821. Ч. 14. № 9. С. 73-76.,,Элегия (указ. в огл. тома),,,ok,52
234,282,Б.-,,Выздоровление,Я видел над главой моей,1821,Благонамеренный. 1821. Ч. 14. № 9. С. 77-78.,,Элегия (указ. в огл. тома),,Подражание французскому,ok,19
235,283,В. Тило,,Майская ночь,Луна плывет среди безоблачных небес,1821,Благонамеренный. 1821. Ч. 14. № 11-12. С. 183.,,Элегия (указ. в огл. тома),,Подражание Нейбеку,ok,27
236,284,В. Тило,,Желание,Ах прежде нежели навеки час кончины,1821,Благонамеренный. 1821. Ч. 15. № 14. С. 81-82.,,Элегия (указ. в огл. тома),,Из Матисона,ok,29
237,285,В. Григорьев (с франц.),,Одиночество,Как часто на горе в тени дубов ветвистых,1821,Благонамеренный. 1821. Ч. 15. № 15. С. 154-157.,,Элегия,,с франц.,ok,74
238,286,Ф. Бальдауф,,Вечер на берегу Байкала,Я не забыл мечты,1821,Благонамеренный. 1821. Ч. 15. № 16. С. 205-209.,,Элегия,,,ok,80
239,287,А. Крылов,,Истребленная роща,Нимфы скрывайтесь бегите толпою,1821,Благонамеренный. 1821. Ч. 15. № 16. С. 209-211.,,Элегия (указ. в огл. тома),,Из Мильвуа,ok,72
240,288,В. Гр.,,Воззвание,О ты которая в сей горестной пустыне,1821,Благонамеренный. 1821. Ч. 15. № 17-18. С. 263-264.,,Элегия (указ. в огл. тома),,С фр.,ok,11
241,289,И. Богданов,,К родине,Благославляю вас поля страны родной,1821,Благонамеренный. 1821. Ч. 15. № 17-18. С. 265-266.,,Элегия (указ. в огл. тома),,,ok,84
242,290,,,Элегия на смерть молодой поселянки,Унылый и глухой со мшистой башни звон,1818,Соревнователь. 1818. Ч. 2. С. 383-387.,,,,Вольный перевод с немецкого,ok,42
243,291,Плетнев,,Старость,Сокрылись призраки моих счастливых лет,1819,Соревнователь. 1819. Ч. 8. С. 88-91.,,Элегия,,,ok,84
244,292,Плетнев,,Победа,Спеши Эрминия спеши мой друг за мной,1819,Соревнователь. 1819. Ч. 8. С. 100-102.,,Элегия,,,ok,34
245,293,И. Великопольский,,Чувства при виде Бородинского поля,Приветствую тебя о место славных дел,1822,Благонамеренный. 1822. Ч. 17. № 3. С. 119-122.,,Элегия (указ. в огл. тома),,Читано в ВОЛСНХ,ok,45
246,294,-евъ,,На кончину А.Ф.П.,Под навесом липы в сени безмятежной,1822,Благонамеренный. 1822. Ч. 17. № 3. С. 126-127.,,Элегия (указ. в огл. тома),11 Jan 1821,,ok,138
247,295,В. Григорьев,,Вечер,Я здесь один на сей скале пустынной,1822,Благонамеренный. 1822. Ч. 17. № 7. С. 275-277.,,Элегия (указ. в огл. тома),,Из Ламартина,ok,60
248,296,И. Великопольский,,К вероломной Темире,Темира я тебя не знал,1822,Благонамеренный. 1822. Ч. 17. № 8. С. 325-326.,,Элегия (указ. в огл. тома),,,ok,65
249,297,В. Г.,В. Григорьев ?,К луне,Ты некогда и мне приветлива была,1822,Благонамеренный. 1822. Ч. 17. № 8. С. 327.,,Элегия (указ. в огл. тома),,,ok,48
250,298,Н. К.,,Коринне,Волшебница твой ненавистен дар,1822,Благонамеренный. 1822. Ч. 17. № 10. С. 407-408.,,Элегия (указ. в огл. тома),,,ok,16
251,299,П.р.въ,,Изгнанник,Оставлен всеми одинок,1822,Благонамеренный. 1822. Ч. 17. № 13. С. 506-507.,,Элегия (указ. в огл. тома),,,ok,29
252,300,Крюков,Крюков Александр Павлович,Могила М.,Чей холм одинокий под ивой густою,1822,Благонамеренный. 1822. Ч. 19. № 29. С. 85-86.,,Элегия (указ. в огл. тома),Илецкая Защита 1822,,ok,19
253,301,Г.,,Аминт,Она бежит отсель я грусти сын унылый,1822,Благонамеренный. 1822. Ч. 19. №  31. С. 185-186.,,Элегия (указ. в огл. тома),,,ok,39
254,302,Пл. Ободовский,,Плач Давида о смерти Саула и Ионафана,На высотах Гильбои диких,1822,Благонамеренный. 1822. Ч. 19. №  38. С. 459-461.,,Элегия,,Читана на последнем публичном экзамене в С.П.бургской Губернской Гимназии,ok,26
255,303,С. Ст-ч,,Ночь на кладбище,Я здесь окрест меня молчанье,1822,Благонамеренный. 1822. Ч. 19. №  38. С. 462-463.,,Элегия (указ. в огл. тома),Шклов,,ok,35
256,304,А. Н-ъ,,Элегия,В долине ветр шумит всхолмились тихи воды,1822,Благонамеренный. 1822. Ч. 19. №  39. С. 501-502.,,,,,ok,92
257,305,А. В.,,Элегия,Лелейте тихие Зефиры,1822,Благонамеренный. 1822. Ч. 20. № 44. С. 194-195.,,,,пародия?,ok,40
258,306,В.,,Элегия,Напрасно тоскуешь о днях золотых,1822,Благонамеренный. 1822. Ч. 20. № 48. С. 336-337.,,,Ярославец,К Софии Т.; 1822,ok,19
259,307,Ф... Р...,[Федор Рындовский? см № 307],Новый год,Гость радостный тебя я с горестью встречаю,1823,Благонамеренный. 1823. Ч. 21. № 4. С. 284-287.,,Элегия,Таганрог,1 Генваря 1812(?),ok,42
260,308,П. Шкляревский,,Песнь Оссиана,В долине сокровенной,1823,Благонамеренный. 1823. Ч. 21. № 5. С. 321-324.,,Элегия (указ. в огл. тома),,,ok,80
261,309,Ф. Ры-ский,,Разлука с друзьями,Источник радостей и милых наслаждений,1823,Благонамеренный. 1823. Ч. 22. № 7. С. 19-22.,,Элегия,Таганрог,1812,ok,10
262,223,М. В-ий,,Грустное чувство поэта,Когда на небо голубое,1829,"Зимцерла. М., 1829. С. 13-14",,А.А. Ч-й,,,ok,20
263,225,Н. Степ-овъ,,Прощание молодого поэта с жизнью,Последний был заре прощальный мой привет,1829,"Цефей. М., 1829. С. 182-184.",,,,без заголовка но похоже то,ok,40
264,244,Алек. Каменская,,Сельское кладбище,Где я вот тихое и мироное кладбище,1817,Украинский вестник. 1817. № 1. С. 90-93.,,Из Легуве,,,ok,36
265,1002,Г. Сокольский,,Прощание,Коль судьба определила,1816,Вестник Европы. 1816. №10. С. 91-92,Х4,,,квази-элегия,ok,32
266,1003,,Иванов Федор Фердорович (редактор Амифона),Меланхолия,Вот здесь где черный бор шумит,1816,Вестник Европы. 1816. № 16. С. 308-309.,,,,можно и просто в элегии? Впервые -- в Амфионе,ok,113
267,1004,М.,,Ночь при гробе,"Солнце село, сумрак лешний",1816,Вестник Европы. 1816. № 21. С. 11-13,,,,пейзаж,ok,62
268,1039, -нъ,,К К.Н.А.Г.,Где девались жизни радости,1824,"Майский листок. СПб., 1824. С. 13-14.",,,,,ok,35
269,1040,2.17,,К Б - му,Ужель находишь друг мой милый,1824,"Майский листок. СПб., 1824. С. 18-19.",,,,Баратынскому? Есть ред. 1826 (интик),ok,29
270,1041,И. Иванов,,Разочарованный,Мне не нужны ваши ласки,1829,"Зимцерла. СПб., 1829. С. 86-87.",,А.Ф.П.,,,ok,19
271,1042,,,Елеоноре,О милый друг ты наконец узнала,1829,"Зимцерла. СПб., 1829. С. 66-67.",,Из Парни,,,ok,25
272,1072,Ю.,,К …,Не отвергай любви моей,1825,Украинский журнал. 1825. № 15. С. 170.,,,,,ok,12
273,1101,Сиянов,,Осень жизни,Прокатилось время младости,1830,"Подснежник. СПб., 1830. С. 96.",,,,,ok,19
274,1125,В.и.ч.л.м.,Кюхельбекер В.К.,Мечта,Один над озером вечернею порою,1819,Благонамеренный. 1819. № 4. С. 209.,,,,,ok,19
275,1133,С. Нечаев,,На разлуку,Что ты сердце так уныло,1820,Благонамеренный. 1820. Ч. 8. № 6. С. 417-418,,,Липецк,,ok,44
276,1134,Вильгельм Тило,,Вечер,День на холмах догорает,1820,Благонамеренный. 1820. Ч. 12. № 20. С. 115-117.,,,Оренбург,,ok,54
277,1135,А. Скск.,,Ель,Под сенью ели этой,1821,Благонамеренный. 1821. Ч. 13. № 4. С. 199-201.,,,Харьков,,ok,49
278,1136,Аркадин,,Элегия,Напрасно изливал я миро пред богами,1821,Благонамеренный. 1821. Ч. 14. № 11-12. С. 219-222.,,,,сатира?,ok,64
